Get all raw metrics for Tampa Bay Nekton Index — anlz_tbnimet • tbeptools
…
    All raw metrics are returned in addition to those required for the TBNI.  Each row shows metric values for a station, year, and month where fish catch data were available.

    See also

    Other anlz: 
anlz_tbbiscr(),
anlz_tbniave(),
anlz_tbniscr()

    Examples

anlz_tbnimet(fimdata)

#> # A tibble: 6,503 x 10
#>    Reference  Year Month Season bay_segment NumTaxa Shannon TaxaSelect NumGuilds
#>    <chr>     <dbl> <dbl> <chr>  <chr>         <dbl>   <dbl>      <dbl>     <dbl>
#>  1 TBM19980…  1998     1 Winter OTB               2   0.362          0         2
#>  2 TBM19980…  1998     1 Winter OTB               1   0              1         1
#>  3 TBM19980…  1998     1 Winter OTB               0   0              0         0
#>  4 TBM19980…  1998     1 Winter OTB               2   0.693          0         1
#>  5 TBM19980…  1998     1 Winter MTB               4   1.16           1         2
#>  6 TBM19980…  1998     1 Winter MTB               2   0.500          1         1
#>  7 TBM19980…  1998     1 Winter MTB               5   0.426          2         3
#>  8 TBM19980…  1998     1 Winter OTB               0   0              0         0
#>  9 TBM19980…  1998     1 Winter HB                4   0.794          1         4
#> 10 TBM19980…  1998     1 Winter HB                1   0              0         1
#> # … with 6,493 more rows, and 1 more variable: BenthicTaxa <dbl>
…
