…
## Details

Frequency occurrence estimates are averaged across segments in
`bay_segment` if `by_seg = F`, i.e., separate results by location are
not returned. Results are retained by bay segment if `by_seg = T`.

## Examples

``` r
if (FALSE) { # \dontrun{
transect <- read_transect()
} # }
transectocc <- anlz_transectocc(transect)
anlz_transectavespp(transectocc)
#> # A tibble: 252 × 3
#>       yr Savspecies    foest
#>    <dbl> <fct>         <dbl>
#>  1  1998 Caulerpa     0.0166
#>  2  1998 Chaetomorpha 0     
#>  3  1998 Dapis        0     
#>  4  1998 Halodule     0.361 
#>  5  1998 Halophila    0     
#>  6  1998 Ruppia       0.0112
#>  7  1998 Syringodium  0.0451
#>  8  1998 Thalassia    0.254 
#>  9  1998 total        0.580 
#> 10  1999 Caulerpa     0.0277
#> # ℹ 242 more rows
```
