Get AMBI scores for benthic stations — anlz_ambiscr • tbeptools
…
$$Adjusted AMBI = (7 - BC) \times (10 / 7)$$

Higher adjusted scores indicate healthier benthic conditions.  Azoic stations (empty samples, TaxaListID == 1942 in benthicdata) receive BC = 7 and adjusted score = 0.

Two variants are supported via the type argument.  "AMBI" uses ecological group assignments from published literature (AMBIGroupID in ambispp).  "AMBI-TB" uses Tampa Bay-specific assignments (TBAMBIGroupID in ambispp).  The calculation is identical, only the group assignment column differs.

    References

    Gillett, D.J., Weisberg, S.B., Grayson, T., Hamilton, A., Hansen, V., Leppo, E.W., Pelletier, M.C., et al. (2015). Effect of ecological group classification schemes on performance of the AMBI benthic index in US coastal waters. Ecological Indicators, 50, 99-107. doi:10.1016/j.ecolind.2014.11.005

    Examples

anlz_ambiscr(benthicdata)
#> # A tibble: 4,915 × 23
#>    StationID StationNumber AreaAbbr FundingProject ProgramID ProgramName       
#>        <int> <chr>         <chr>    <chr>              <int> <chr>             
#>  1       448 02BBs301      MTB      Apollo Beach           4 Benthic Monitoring
#>  2       449 02BBs305      MTB      Apollo Beach           4 Benthic Monitoring
#>  3       450 02BBs307      MTB      Apollo Beach           4 Benthic Monitoring
#>  4       451 02BBs364      MTB      Apollo Beach           4 Benthic Monitoring
#>  5       452 02BBs369      MTB      Apollo Beach           4 Benthic Monitoring
#>  6       453 02BBs395      MTB      Apollo Beach           4 Benthic Monitoring
#>  7       454 02BBs397      MTB      Apollo Beach           4 Benthic Monitoring
#>  8       455 02BBs398      MTB      Apollo Beach           4 Benthic Monitoring
#>  9       456 02BBs401      MTB      Apollo Beach           4 Benthic Monitoring
#> 10       457 02BBs402      MTB      Apollo Beach           4 Benthic Monitoring
#> # ℹ 4,905 more rows
#> # ℹ 17 more variables: Latitude <dbl>, Longitude <dbl>, date <date>, yr <dbl>,
#> #   TotalGroupCount <int>, PercentG1 <dbl>, PercentG2 <dbl>, PercentG3 <dbl>,
#> #   PercentG4 <dbl>, PercentG5 <dbl>, BC <dbl>, AMBI <dbl>,
#> #   SitePollutionClassification <chr>, BioticIndex <chr>,
#> #   DominatingEcologicalGroup <chr>, BenthicCommunityHealth <chr>,
#> #   AMBICat <chr>
anlz_ambiscr(benthicdata, type = 'AMBI-TB')
#> # A tibble: 4,915 × 23
#>    StationID StationNumber AreaAbbr FundingProject ProgramID ProgramName       
#>        <int> <chr>         <chr>    <chr>              <int> <chr>             
#>  1       448 02BBs301      MTB      Apollo Beach           4 Benthic Monitoring
#>  2       449 02BBs305      MTB      Apollo Beach           4 Benthic Monitoring
#>  3       450 02BBs307      MTB      Apollo Beach           4 Benthic Monitoring
#>  4       451 02BBs364      MTB      Apollo Beach           4 Benthic Monitoring
#>  5       452 02BBs369      MTB      Apollo Beach           4 Benthic Monitoring
#>  6       453 02BBs395      MTB      Apollo Beach           4 Benthic Monitoring
#>  7       454 02BBs397      MTB      Apollo Beach           4 Benthic Monitoring
#>  8       455 02BBs398      MTB      Apollo Beach           4 Benthic Monitoring
#>  9       456 02BBs401      MTB      Apollo Beach           4 Benthic Monitoring
#> 10       457 02BBs402      MTB      Apollo Beach           4 Benthic Monitoring
#> # ℹ 4,905 more rows
#> # ℹ 17 more variables: Latitude <dbl>, Longitude <dbl>, date <date>, yr <dbl>,
#> #   TotalGroupCount <int>, PercentG1 <dbl>, PercentG2 <dbl>, PercentG3 <dbl>,
#> #   PercentG4 <dbl>, PercentG5 <dbl>, BC <dbl>, TBAMBI <dbl>,
#> #   SitePollutionClassification <chr>, BioticIndex <chr>,
#> #   DominatingEcologicalGroup <chr>, BenthicCommunityHealth <chr>,
#> #   TBAMBICat <chr>
…
