…
Input from
[`read_importwqp`](https://tbep-tech.github.io/tbeptools/reference/read_importwqp.md)
for Manatee County (21FLMANA_WQX), Pasco County (21FLPASC_WQX), or Polk
County (21FLPOLK_WQX) FIB data can also be used. The function has not
been tested for other organizations.

## See also

[`show_fibmatrix`](https://tbep-tech.github.io/tbeptools/reference/show_fibmatrix.md)

## Examples

``` r
anlz_fibmatrix(fibdata)
#> # A tibble: 102 × 7
#>       yr grp   class  gmean Latitude Longitude cat  
#>    <dbl> <fct> <chr>  <dbl>    <dbl>     <dbl> <chr>
#>  1  2003 105   Marine  97.1     28.0     -82.4 C    
#>  2  2003 152   Marine 266.      28.0     -82.5 D    
#>  3  2003 137   Marine 342.      28.0     -82.5 D    
#>  4  2004 105   Marine 216.      28.0     -82.4 C    
#>  5  2004 152   Marine 246.      28.0     -82.5 C    
#>  6  2004 137   Marine 302.      28.0     -82.5 D    
#>  7  2005 105   Marine 117.      28.0     -82.4 C    
#>  8  2005 152   Marine  91.7     28.0     -82.5 C    
#>  9  2005 137   Marine  66.6     28.0     -82.5 C    
#> 10  2006 105   Marine  90.7     28.0     -82.4 C    
#> # ℹ 92 more rows

# use different dataset
anlz_fibmatrix(enterodata, lagyr = 1)
#> Warning: Stations with insufficient data for lagyr: 21FLPDEM_WQX-05-06
#> # A tibble: 684 × 7
#>       yr grp                    class  gmean Latitude Longitude cat  
#>    <dbl> <fct>                  <chr>  <dbl>    <dbl>     <dbl> <chr>
#>  1  2000 21FLDOH_WQX-MANATEE152 Marine  10.7     27.5     -82.7 A    
#>  2  2001 21FLDOH_WQX-MANATEE152 Marine  16.0     27.5     -82.7 A    
#>  3  2001 21FLHILL_WQX-101       Marine 284.      28.0     -82.6 C    
#>  4  2001 21FLHILL_WQX-102       Marine  55.7     28.0     -82.6 A    
#>  5  2001 21FLHILL_WQX-103       Marine 214.      28.0     -82.6 B    
#>  6  2001 21FLHILL_WQX-104       Marine 408.      28.0     -82.6 D    
#>  7  2001 21FLHILL_WQX-109       Marine  97.8     27.9     -82.4 B    
#>  8  2001 21FLHILL_WQX-112       Marine  48.3     27.7     -82.4 A    
#>  9  2001 21FLHILL_WQX-133       Marine 747.      27.9     -82.4 D    
#> 10  2001 21FLHILL_WQX-136       Marine  26.1     27.7     -82.5 A    
#> # ℹ 674 more rows

# subset to only wet samples
anlz_fibmatrix(enterodata, lagyr = 1, subset_wetdry = "wet",
               temporal_window = 2, wet_threshold = 0.5)
#> # A tibble: 500 × 7
#>       yr grp                    class   gmean Latitude Longitude cat  
#>    <dbl> <fct>                  <chr>   <dbl>    <dbl>     <dbl> <chr>
#>  1  2001 21FLDOH_WQX-MANATEE152 Marine   31.6     27.5     -82.7 A    
#>  2  2001 21FLHILL_WQX-101       Marine 2252.      28.0     -82.6 C    
#>  3  2001 21FLHILL_WQX-102       Marine   66.0     28.0     -82.6 A    
#>  4  2001 21FLHILL_WQX-103       Marine  472.      28.0     -82.6 B    
#>  5  2001 21FLHILL_WQX-104       Marine 3284.      28.0     -82.6 C    
#>  6  2001 21FLHILL_WQX-109       Marine  133.      27.9     -82.4 A    
#>  7  2001 21FLHILL_WQX-112       Marine   40       27.7     -82.4 A    
#>  8  2001 21FLHILL_WQX-133       Marine 3286.      27.9     -82.4 C    
#>  9  2002 21FLDOH_WQX-MANATEE152 Marine   13.7     27.5     -82.7 A    
#> 10  2002 21FLHILL_WQX-101       Marine  531.      28.0     -82.6 C    
#> # ℹ 490 more rows

# Manatee County data
anlz_fibmatrix(mancofibdata, lagyr = 1)
#> # A tibble: 200 × 7
#>       yr grp   class   gmean Latitude Longitude cat  
#>    <dbl> <fct> <chr>   <dbl>    <dbl>     <dbl> <chr>
#>  1  2013 LM4   Marine  771.      27.5     -82.5 C    
#>  2  2014 LM3   Marine  161       27.5     -82.5 A    
#>  3  2014 LM4   Marine  387       27.5     -82.5 A    
#>  4  2015 LM3   Marine  259.      27.5     -82.5 C    
#>  5  2015 LM4   Marine  222.      27.5     -82.5 C    
#>  6  2016 LM4   Marine 2419       27.5     -82.5 A    
#>  7  2017 LM3   Marine 1553       27.5     -82.5 A    
#>  8  2018 BC1   Fresh  1591.      27.4     -82.6 C    
#>  9  2018 BC2   Fresh   674.      27.4     -82.6 C    
#> 10  2018 BR1   Fresh    16.6     27.4     -82.5 A    
#> # ℹ 190 more rows
```
