…
The `areasel` argument can indicate valid entries in the `long_name`
column of `enterodata`. For example, use `"Old Tampa Bay"` for stations
in the subwatershed of Old Tampa Bay, where rows in `enterodata` are
filtered based on the the selection. All stations are returned if this
argument is set as `NULL` (default). All valid options for `areasel`
include `"Old Tampa Bay"`, `"Hillsborough Bay"`, `"Middle Tampa Bay"`,
`"Lower Tampa Bay"`, `"Boca Ciega Bay"`, or `"Manatee River"`. One to
any of the options can be used.

## Examples

``` r
anlz_enteromap(enterodata, yrsel = 2020, mosel = 9)
#> # A tibble: 39 × 12
#>    station     long_name    yr    mo Latitude Longitude entero cat   col   ind  
#>    <chr>       <chr>     <dbl> <dbl>    <dbl>     <dbl>  <dbl> <fct> <chr> <chr>
#>  1 21FLHILL_W… Old Tamp…  2020     9     28.0     -82.6    380 130 … #EE7… Ente…
#>  2 21FLHILL_W… Old Tamp…  2020     9     28.0     -82.6    380 130 … #EE7… Ente…
#>  3 21FLHILL_W… Old Tamp…  2020     9     28.0     -82.6    490 130 … #EE7… Ente…
#>  4 21FLHILL_W… Old Tamp…  2020     9     28.0     -82.6    725 130 … #EE7… Ente…
#>  5 21FLPDEM_W… Old Tamp…  2020     9     28.0     -82.7    703 130 … #EE7… Ente…
#>  6 21FLPDEM_W… Old Tamp…  2020     9     27.9     -82.7     10 < 35  #2DC… Ente…
#>  7 21FLPDEM_W… Old Tamp…  2020     9     27.9     -82.7   1990 > 999 #CC3… Ente…
#>  8 21FLPDEM_W… Old Tamp…  2020     9     27.9     -82.7    171 130 … #EE7… Ente…
#>  9 21FLTPA_WQ… Old Tamp…  2020     9     27.9     -82.6    908 130 … #EE7… Ente…
#> 10 21FLHILL_W… Hillsbor…  2020     9     27.9     -82.4      1 < 35  #2DC… Ente…
#> # ℹ 29 more rows
#> # ℹ 2 more variables: indnm <chr>, conc <dbl>

# differentiate wet/dry samples in that time frame
anlz_enteromap(enterodata, yrsel = 2020, mosel = 9, wetdry = TRUE,
               temporal_window = 2, wet_threshold = 0.5)
#> # A tibble: 39 × 13
#>    station     long_name    yr    mo Latitude Longitude entero cat   col   ind  
#>    <chr>       <chr>     <dbl> <dbl>    <dbl>     <dbl>  <dbl> <fct> <chr> <chr>
#>  1 21FLHILL_W… Old Tamp…  2020     9     28.0     -82.6    380 130 … #EE7… Ente…
#>  2 21FLHILL_W… Old Tamp…  2020     9     28.0     -82.6    380 130 … #EE7… Ente…
#>  3 21FLHILL_W… Old Tamp…  2020     9     28.0     -82.6    490 130 … #EE7… Ente…
#>  4 21FLHILL_W… Old Tamp…  2020     9     28.0     -82.6    725 130 … #EE7… Ente…
#>  5 21FLPDEM_W… Old Tamp…  2020     9     28.0     -82.7    703 130 … #EE7… Ente…
#>  6 21FLPDEM_W… Old Tamp…  2020     9     27.9     -82.7     10 < 35  #2DC… Ente…
#>  7 21FLPDEM_W… Old Tamp…  2020     9     27.9     -82.7   1990 > 999 #CC3… Ente…
#>  8 21FLPDEM_W… Old Tamp…  2020     9     27.9     -82.7    171 130 … #EE7… Ente…
#>  9 21FLTPA_WQ… Old Tamp…  2020     9     27.9     -82.6    908 130 … #EE7… Ente…
#> 10 21FLHILL_W… Hillsbor…  2020     9     27.9     -82.4      1 < 35  #2DC… Ente…
#> # ℹ 29 more rows
#> # ℹ 3 more variables: indnm <chr>, conc <dbl>, wet_sample <lgl>

# as sf object
anlz_enteromap(enterodata, assf = TRUE)
#> Simple feature collection with 6195 features and 14 fields
#> Geometry type: POINT
#> Dimension:     XY
#> Bounding box:  xmin: -82.74598 ymin: 27.49433 xmax: -82.38168 ymax: 28.02571
#> Geodetic CRS:  WGS 84
#> # A tibble: 6,195 × 15
#>    station     long_name    yr    mo Latitude Longitude entero cat   col   ind  
#>    <chr>       <chr>     <dbl> <dbl>    <dbl>     <dbl>  <dbl> <fct> <chr> <chr>
#>  1 21FLHILL_W… Old Tamp…  2001     1     28.0     -82.6     80 35 -… #E9C… Ente…
#>  2 21FLHILL_W… Old Tamp…  2001     2     28.0     -82.6    360 130 … #EE7… Ente…
#>  3 21FLHILL_W… Old Tamp…  2001     3     28.0     -82.6   3900 > 999 #CC3… Ente…
#>  4 21FLHILL_W… Old Tamp…  2001     4     28.0     -82.6     20 < 35  #2DC… Ente…
#>  5 21FLHILL_W… Old Tamp…  2001     7     28.0     -82.6   1300 > 999 #CC3… Ente…
#>  6 21FLHILL_W… Old Tamp…  2001     8     28.0     -82.6    260 130 … #EE7… Ente…
#>  7 21FLHILL_W… Old Tamp…  2001     9     28.0     -82.6    420 130 … #EE7… Ente…
#>  8 21FLHILL_W… Old Tamp…  2001    10     28.0     -82.6    520 130 … #EE7… Ente…
#>  9 21FLHILL_W… Old Tamp…  2001    11     28.0     -82.6     60 35 -… #E9C… Ente…
#> 10 21FLHILL_W… Old Tamp…  2001    12     28.0     -82.6    340 130 … #EE7… Ente…
#> # ℹ 6,185 more rows
#> # ℹ 5 more variables: grp <fct>, conc <dbl>, wet_sample <fct>,
#> #   geometry <POINT [°]>, lab <chr>
```
