Import monthly sea levels by station from NOAA Tides and Currents — read_importsealevels • tbeptools
…
lwi: Greenwich Low Water Interval (in Hours)

highest: Highest Tide

lowest: Lowest Tide

inferred: A flag that when set to 1 indicates that the water level value has been inferred

For more details on these output data columns, see About Tidal Datums | NOAA Tides & Currents.

    Examples

read_importsealevels(tempfile("sealevels", fileext=".csv"))
#> # A tibble: 1,910 × 21
#>    station_id station_name     date        year month highest  mhhw   mhw   msl
#>         <dbl> <chr>            <date>     <dbl> <dbl>   <dbl> <dbl> <dbl> <dbl>
#>  1    8726724 Clearwater Beach 1973-05-01  1973     5    1.55  1.38  1.26 0.96 
#>  2    8726724 Clearwater Beach 1973-06-01  1973     6    1.61  1.38  1.25 0.951
#>  3    8726724 Clearwater Beach 1973-07-01  1973     7    1.58  1.38  1.25 0.951
#>  4    8726724 Clearwater Beach 1973-08-01  1973     8    1.57  1.40  1.28 0.981
#>  5    8726724 Clearwater Beach 1973-09-01  1973     9    1.54  1.43  1.33 1.04 
#>  6    8726724 Clearwater Beach 1973-10-01  1973    10    1.66  1.38  1.29 1.02 
#>  7    8726724 Clearwater Beach 1973-11-01  1973    11    1.64  1.40  1.29 1.01 
#>  8    8726724 Clearwater Beach 1973-12-01  1973    12    1.53  1.28  1.16 0.896
#>  9    8726724 Clearwater Beach 1974-01-01  1974     1    1.53  1.30  1.16 0.872
#> 10    8726724 Clearwater Beach 1974-02-01  1974     2    1.61  1.27  1.15 0.869
#> # ℹ 1,900 more rows
#> # ℹ 12 more variables: mtl <dbl>, mlw <dbl>, mllw <dbl>, dtl <dbl>, gt <dbl>,
#> #   mn <dbl>, dhq <dbl>, dlq <dbl>, hwi <dbl>, lwi <dbl>, lowest <dbl>,
#> #   inferred <dbl>
…
