Tampa Bay Benthic Index • tbeptools
…
benthicdata
#> # A tibble: 3 x 2
#>   name         value                 
#>   <chr>        <list>                
#> 1 stations     <tibble [4,516 x 7]>  
#> 2 fieldsamples <tibble [4,998 x 3]>  
#> 3 taxacounts   <tibble [135,328 x 7]>

The individual datasets can be viewed by extracting them from the parent object using the deframe() function from the tibble package.

# see all
deframe(benthicdata)
#> $stations
#> # A tibble: 4,516 x 7
#>    StationID ProgramID ProgramName        Latitude Longitude date          yr
#>        <int>     <int> <chr>                 <dbl>     <dbl> <date>     <dbl>
#>  1       448         4 Benthic Monitoring     27.8     -82.4 2002-05-21  2002
#>  2       449         4 Benthic Monitoring     27.8     -82.4 2002-05-20  2002
#>  3       450         4 Benthic Monitoring     27.8     -82.4 2002-05-21  2002
#>  4       451         4 Benthic Monitoring     27.8     -82.4 2002-05-21  2002
#>  5       452         4 Benthic Monitoring     27.8     -82.4 2002-05-20  2002
#>  6       453         4 Benthic Monitoring     27.8     -82.4 2002-05-21  2002
#>  7       454         4 Benthic Monitoring     27.8     -82.4 2002-05-21  2002
#>  8       455         4 Benthic Monitoring     27.8     -82.4 2002-05-21  2002
#>  9       456         4 Benthic Monitoring     27.8     -82.4 2002-05-20  2002
#> 10       457         4 Benthic Monitoring     27.8     -82.4 2002-05-20  2002
#> # ... with 4,506 more rows
#> 
#> $fieldsamples
#> # A tibble: 4,998 x 3
#>    StationID date       Salinity
#>        <int> <date>        <dbl>
#>  1       448 2002-05-21     30.5
#>  2       449 2002-05-20     30.8
#>  3       450 2002-05-21     30.5
#>  4       451 2002-05-21     30.6
#>  5       452 2002-05-20     30  
#>  6       453 2002-05-21     30.6
#>  7       454 2002-05-21     30.5
#>  8       455 2002-05-21     30.3
#>  9       456 2002-05-20     30.0
#> 10       457 2002-05-20     29.9
#> # ... with 4,988 more rows
#> 
#> $taxacounts
#> # A tibble: 135,328 x 7
#>    StationID TaxaCountID TaxaListID FAMILY      NAME          TaxaCount AdjCount
#>        <int>       <int>      <int> <chr>       <chr>             <dbl>    <dbl>
#>  1     11321      152055       1198 Anomiidae   Anomia simpl~         1       25
#>  2     11321      152056       1224 Carditidae  Carditamera ~         1       25
#>  3       584      233277        624 Cirratulid~ Chaetozone s~         1       25
#>  4     11321      152057       1306 Veneridae   Chione eleva~         3       75
#>  5      3132      239443        352 Pilargidae  Sigambra bas~        14      350
#>  6     11321      152058       1088 Pyramidell~ Turbonilla c~         6      150
#>  7      2541      140530        258 <NA>        NEMERTEA              8      200
#>  8      2542      140531        258 <NA>        NEMERTEA              2       50
#>  9      2992      140631        262 <NA>        Palaeonemert~         4      100
#> 10      3003      140635        285 Tetrastemm~ Tetrastemma ~         2       50
#> # ... with 135,318 more rows

# get only station dat
deframe(benthicdata)[['stations']]
#> # A tibble: 4,516 x 7
#>    StationID ProgramID ProgramName        Latitude Longitude date          yr
#>        <int>     <int> <chr>                 <dbl>     <dbl> <date>     <dbl>
#>  1       448         4 Benthic Monitoring     27.8     -82.4 2002-05-21  2002
#>  2       449         4 Benthic Monitoring     27.8     -82.4 2002-05-20  2002
#>  3       450         4 Benthic Monitoring     27.8     -82.4 2002-05-21  2002
#>  4       451         4 Benthic Monitoring     27.8     -82.4 2002-05-21  2002
#>  5       452         4 Benthic Monitoring     27.8     -82.4 2002-05-20  2002
#>  6       453         4 Benthic Monitoring     27.8     -82.4 2002-05-21  2002
#>  7       454         4 Benthic Monitoring     27.8     -82.4 2002-05-21  2002
#>  8       455         4 Benthic Monitoring     27.8     -82.4 2002-05-21  2002
#>  9       456         4 Benthic Monitoring     27.8     -82.4 2002-05-20  2002
#> 10       457         4 Benthic Monitoring     27.8     -82.4 2002-05-20  2002
#> # ... with 4,506 more rows

The anlz_tbbiscr() function uses the nested benthicdata to estimate the TBBI scores at each site. The TBBI scores typically range from 0 to 100 and are grouped into categories that describe the general condition of the benthic community. Scores less than 73 are considered “degraded”, scores between 73 and 87 are “intermediate”, and scores greater than 87 are “healthy”. Locations that were sampled but no organisms were found are assigned a score of zero and a category of “empty sample”. The total abundance (TotalAbundance, ind/m2), species richness (SpeciesRichness) and bottom salinity (Salinity, psu). Some metrics for the TBBI are corrected for salinity and bottom measurements taken at the time of sampling are required for accurate calculation of the TBBI.

tbbiscr <- anlz_tbbiscr(benthicdata)
tbbiscr
#> # A tibble: 4,516 x 12
#>    StationID ProgramID ProgramName Latitude Longitude date          yr
#>        <int>     <int> <chr>          <dbl>     <dbl> <date>     <dbl>
#>  1       448         4 Benthic Mo~     27.8     -82.4 2002-05-21  2002
#>  2       449         4 Benthic Mo~     27.8     -82.4 2002-05-20  2002
#>  3       450         4 Benthic Mo~     27.8     -82.4 2002-05-21  2002
#>  4       451         4 Benthic Mo~     27.8     -82.4 2002-05-21  2002
#>  5       452         4 Benthic Mo~     27.8     -82.4 2002-05-20  2002
#>  6       453         4 Benthic Mo~     27.8     -82.4 2002-05-21  2002
#>  7       454         4 Benthic Mo~     27.8     -82.4 2002-05-21  2002
#>  8       455         4 Benthic Mo~     27.8     -82.4 2002-05-21  2002
#>  9       456         4 Benthic Mo~     27.8     -82.4 2002-05-20  2002
#> 10       457         4 Benthic Mo~     27.8     -82.4 2002-05-20  2002
#> # ... with 4,506 more rows, and 5 more variables: TotalAbundance <dbl>,
#> #   SpeciesRichness <dbl>, TBBI <dbl>, TBBICat <chr>, Salinity <dbl>
…
