Fecal Indicator Bacteria • tbeptools
…
The FIB data can be downloaded as follows:

fibdata <- read_importfib('vignettes/current_data.xlsx', download_latest = T)

A data object called fibdata is also provided with the
package, although it may not contain the most current data available
from EPC. View the help
file for the download date.

fibdata
#> # A tibble: 20,225 × 18
#>    area   epchc_station class SampleTime             yr    mo Latitude Longitude
#>    <chr>          <dbl> <chr> <dttm>              <dbl> <dbl>    <dbl>     <dbl>
#>  1 Hills…             2 3M    2023-04-11 13:51:00  2023     4     27.9     -82.5
#>  2 Alafi…            74 3M    2023-04-25 12:56:00  2023     4     27.9     -82.4
#>  3 Hills…           105 3M    2023-04-11 10:30:00  2023     4     28.0     -82.4
#>  4 Hills…           106 1     2023-04-18 11:10:00  2023     4     28.1     -82.4
#>  5 Lake …           107 3F    2023-04-18 13:08:00  2023     4     28.0     -82.3
#>  6 Hills…           108 3F    2023-04-18 11:59:00  2023     4     28.1     -82.2
#>  7 Alafi…           111 3F    2023-04-24 12:38:00  2023     4     27.9     -82.2
#>  8 Alafi…           114 3F    2023-04-19 10:52:00  2023     4     27.9     -82.3
#>  9 Alafi…           115 3F    2023-04-24 11:32:00  2023     4     27.9     -82.1
#> 10 Alafi…           116 3F    2023-04-24 11:36:00  2023     4     27.9     -82.1
#> # ℹ 20,215 more rows
#> # ℹ 10 more variables: Total_Depth_m <dbl>, Sample_Depth_m <dbl>, ecoli <dbl>,
#> #   ecoli_q <chr>, ecocci <dbl>, ecocci_q <chr>, fcolif <dbl>, fcolif_q <chr>,
#> #   totcol <dbl>, totcol_q <chr>
…
Analyze

The anlz_fibmap() function assigns categories to each
observation in fibdata for a selected month and year. These
results are then mapped using anlz_fibmap() (see below).
The categories are specific to E. coli or Enterococcus
and are assigned based on the station class as freshwater
(class as 1 or 3F) or marine (class as 2 or
3M), respectively. A station is categorized into one of four ranges
defined by the thresholds as noted in the cat column of the
output, with corresponding colors appropriate for each range as noted in
the col column of the output.

anlz_fibmap(fibdata)
#> # A tibble: 20,225 × 12
#>    area    epchc_station class    yr    mo Latitude Longitude ecoli ecocci ind  
#>    <chr>           <dbl> <chr> <dbl> <dbl>    <dbl>     <dbl> <dbl>  <dbl> <chr>
#>  1 Hillsb…             2 3M     2023     4     27.9     -82.5    NA      2 Ente…
#>  2 Alafia…            74 3M     2023     4     27.9     -82.4    NA      2 Ente…
#>  3 Hillsb…           105 3M     2023     4     28.0     -82.4    NA      8 Ente…
#>  4 Hillsb…           106 1      2023     4     28.1     -82.4     5      4 E. c…
#>  5 Lake T…           107 3F     2023     4     28.0     -82.3   110    110 E. c…
#>  6 Hillsb…           108 3F     2023     4     28.1     -82.2   103     72 E. c…
#>  7 Alafia…           111 3F     2023     4     27.9     -82.2    NA     NA E. c…
#>  8 Alafia…           114 3F     2023     4     27.9     -82.3   184    100 E. c…
#>  9 Alafia…           115 3F     2023     4     27.9     -82.1    57     57 E. c…
#> 10 Alafia…           116 3F     2023     4     27.9     -82.1    32     52 E. c…
#> # ℹ 20,215 more rows
#> # ℹ 2 more variables: cat <fct>, col <chr>
…
Enterococcus
35 - 129

Enterococcus
130 - 999

Enterococcus
> 999

The yrsel and mosel arguments can be used
to filter results by year and month. Not specifying these arguments will
return results for the entire period of record.

anlz_fibmap(fibdata, yrsel = 2022, mosel = 7)
#> # A tibble: 62 × 12
#>    area    epchc_station class    yr    mo Latitude Longitude ecoli ecocci ind  
#>    <chr>           <dbl> <chr> <dbl> <dbl>    <dbl>     <dbl> <dbl>  <dbl> <chr>
#>  1 Hillsb…             2 3M     2022     7     27.9     -82.5    NA     20 Ente…
#>  2 Alafia…            74 3M     2022     7     27.9     -82.4    NA     10 Ente…
#>  3 Hillsb…           105 3M     2022     7     28.0     -82.4    NA      7 Ente…
#>  4 Hillsb…           106 1      2022     7     28.1     -82.4    73     80 E. c…
#>  5 Lake T…           107 3F     2022     7     28.0     -82.3   240    700 E. c…
#>  6 Hillsb…           108 3F     2022     7     28.1     -82.2    60    210 E. c…
#>  7 Alafia…           111 3F     2022     7     27.9     -82.2   600    800 E. c…
#>  8 Alafia…           114 3F     2022     7     27.9     -82.3    60     67 E. c…
#>  9 Alafia…           115 3F     2022     7     27.9     -82.1    90    240 E. c…
#> 10 Alafia…           116 3F     2022     7     27.9     -82.1    20    167 E. c…
#> # ℹ 52 more rows
#> # ℹ 2 more variables: cat <fct>, col <chr>
…
anlz_fibmap(fibdata, yrsel = 2022, mosel = 7, areasel = 'Hillsborough')
#> # A tibble: 38 × 12
#>    area    epchc_station class    yr    mo Latitude Longitude ecoli ecocci ind  
#>    <chr>           <dbl> <chr> <dbl> <dbl>    <dbl>     <dbl> <dbl>  <dbl> <chr>
#>  1 Hillsb…             2 3M     2022     7     27.9     -82.5    NA     20 Ente…
#>  2 Hillsb…           105 3M     2022     7     28.0     -82.4    NA      7 Ente…
#>  3 Hillsb…           106 1      2022     7     28.1     -82.4    73     80 E. c…
#>  4 Lake T…           107 3F     2022     7     28.0     -82.3   240    700 E. c…
#>  5 Hillsb…           108 3F     2022     7     28.1     -82.2    60    210 E. c…
#>  6 Lake T…           118 3F     2022     7     28.1     -82.3     7     10 E. c…
#>  7 Hillsb…           120 3F     2022     7     28.1     -82.4   220    300 E. c…
#>  8 Lake T…           135 3F     2022     7     28.1     -82.3     7      7 E. c…
#>  9 Hillsb…           137 3M     2022     7     28.0     -82.5    NA     40 Ente…
#> 10 Hillsb…           143 3F     2022     7     28.1     -82.1   327   1240 E. c…
#> # ℹ 28 more rows
#> # ℹ 2 more variables: cat <fct>, col <chr>
…
anlz_fibmatrix(fibdata)
#> # A tibble: 351 × 4
#>       yr epchc_station gmean cat  
#>    <dbl> <fct>         <dbl> <chr>
#>  1  1985 143             NA  NA   
#>  2  1985 108            126. A    
#>  3  1985 107            181. C    
#>  4  1985 135            100  A    
#>  5  1985 118            155. A    
#>  6  1985 148             NA  NA   
#>  7  1985 105            227. C    
#>  8  1985 152             NA  NA   
#>  9  1985 137            206. C    
#> 10  1986 143             NA  NA   
#> # ℹ 341 more rows
…
