…
The FIB data can be downloaded as follows:

``` r
fibdata <- read_importfib(xlsx = 'vignettes/current_data.xlsx', download_latest = T)
```

A data object called `fibdata` is also provided with the package,
although it may not contain the most current data available from EPC.
View the [help
file](https://tbep-tech.github.io/tbeptools/reference/fibdata.html) for
the download date.

``` r
fibdata
#> # A tibble: 29,175 × 18
#>    area   epchc_station class SampleTime             yr    mo Latitude Longitude
#>    <chr>          <dbl> <chr> <dttm>              <dbl> <dbl>    <dbl>     <dbl>
#>  1 Hills…             2 3M    2024-12-10 12:58:00  2024    12     27.9     -82.5
#>  2 Hills…             6 3M    2024-12-09 09:27:00  2024    12     27.9     -82.5
#>  3 Hills…             7 3M    2024-12-09 09:38:00  2024    12     27.9     -82.5
#>  4 Hills…             8 3M    2024-12-09 11:42:00  2024    12     27.9     -82.4
#>  5 Middl…             9 2     2024-12-09 11:02:00  2024    12     27.8     -82.4
#>  6 Middl…            11 2     2024-12-09 09:52:00  2024    12     27.8     -82.5
#>  7 Middl…            13 2     2024-12-09 10:04:00  2024    12     27.8     -82.5
#>  8 Middl…            14 2     2024-12-09 10:37:00  2024    12     27.8     -82.5
#>  9 Middl…            16 2     2024-12-16 09:44:00  2024    12     27.7     -82.5
#> 10 Middl…            19 2     2024-12-16 09:59:00  2024    12     27.7     -82.6
#> # ℹ 29,165 more rows
#> # ℹ 10 more variables: Total_Depth_m <dbl>, Sample_Depth_m <dbl>, ecoli <dbl>,
#> #   ecoli_q <chr>, entero <dbl>, entero_q <chr>, fcolif <dbl>, fcolif_q <chr>,
#> #   totcol <dbl>, totcol_q <chr>
```
…
The
[`anlz_fibmap()`](https://tbep-tech.github.io/tbeptools/reference/anlz_fibmap.md)
function assigns categories to each observation in `fibdata` for a
selected month and year. These results are then mapped using
[`anlz_fibmap()`](https://tbep-tech.github.io/tbeptools/reference/anlz_fibmap.md)
(see below). The categories are specific to *E. coli* or *Enterococcus*
and are assigned based on the station class as freshwater (`class` as 1
or 3F) or marine (`class` as 2 or 3M), respectively. A station is
categorized into one of four ranges defined by the thresholds as noted
in the `cat` column of the output, with corresponding colors appropriate
for each range as noted in the `col` column of the output.

``` r
anlz_fibmap(fibdata)
#> # A tibble: 29,175 × 12
#>    area    station class    yr    mo Latitude Longitude ecoli entero ind   cat  
#>    <chr>     <dbl> <chr> <dbl> <dbl>    <dbl>     <dbl> <dbl>  <dbl> <chr> <fct>
#>  1 Hillsb…       2 3M     2024    12     27.9     -82.5    NA     28 Ente… < 35 
#>  2 Hillsb…       6 3M     2024    12     27.9     -82.5    NA      2 Ente… < 35 
#>  3 Hillsb…       7 3M     2024    12     27.9     -82.5    NA      2 Ente… < 35 
#>  4 Hillsb…       8 3M     2024    12     27.9     -82.4    NA      2 Ente… < 35 
#>  5 Middle…       9 2      2024    12     27.8     -82.4    NA      4 Ente… < 35 
#>  6 Middle…      11 2      2024    12     27.8     -82.5    NA      2 Ente… < 35 
#>  7 Middle…      13 2      2024    12     27.8     -82.5    NA      2 Ente… < 35 
#>  8 Middle…      14 2      2024    12     27.8     -82.5    NA      2 Ente… < 35 
#>  9 Middle…      16 2      2024    12     27.7     -82.5    NA      2 Ente… < 35 
#> 10 Middle…      19 2      2024    12     27.7     -82.6    NA      2 Ente… < 35 
#> # ℹ 29,165 more rows
#> # ℹ 1 more variable: col <chr>
```
…
The `yrsel` and `mosel` arguments can be used to filter results by year
and month. Not specifying these arguments will return results for the
entire period of record.

``` r
anlz_fibmap(fibdata, yrsel = 2023, mosel = 7)
#> # A tibble: 150 × 12
#>    area    station class    yr    mo Latitude Longitude ecoli entero ind   cat  
#>    <chr>     <dbl> <chr> <dbl> <dbl>    <dbl>     <dbl> <dbl>  <dbl> <chr> <fct>
#>  1 Hillsb…       2 3M     2023     7     27.9     -82.5    NA    800 Ente… 130 …
#>  2 Hillsb…       6 3M     2023     7     27.9     -82.5    NA      2 Ente… < 35 
#>  3 Hillsb…       7 3M     2023     7     27.9     -82.5    NA      2 Ente… < 35 
#>  4 Hillsb…       8 3M     2023     7     27.9     -82.4    NA      2 Ente… < 35 
#>  5 Middle…       9 2      2023     7     27.8     -82.4    NA      2 Ente… < 35 
#>  6 Middle…      11 2      2023     7     27.8     -82.5    NA      2 Ente… < 35 
#>  7 Middle…      13 2      2023     7     27.8     -82.5    NA      2 Ente… < 35 
#>  8 Middle…      14 2      2023     7     27.8     -82.5    NA      2 Ente… < 35 
#>  9 Middle…      16 2      2023     7     27.7     -82.5    NA      2 Ente… < 35 
#> 10 Middle…      19 2      2023     7     27.7     -82.6    NA      2 Ente… < 35 
#> # ℹ 140 more rows
#> # ℹ 1 more variable: col <chr>
```
…
``` r
anlz_fibmap(fibdata, yrsel = 2023, mosel = 7, areasel = 'Hillsborough River')
#> # A tibble: 37 × 12
#>    area    station class    yr    mo Latitude Longitude ecoli entero ind   cat  
#>    <chr>     <dbl> <chr> <dbl> <dbl>    <dbl>     <dbl> <dbl>  <dbl> <chr> <fct>
#>  1 Hillsb…       2 3M     2023     7     27.9     -82.5    NA    800 Ente… 130 …
#>  2 Hillsb…     105 3M     2023     7     28.0     -82.4    NA    128 Ente… 35 -…
#>  3 Hillsb…     106 1      2023     7     28.1     -82.4   144    232 E. c… 126 …
#>  4 Lake T…     107 3F     2023     7     28.0     -82.3   570   1550 E. c… 410 …
#>  5 Hillsb…     108 3F     2023     7     28.1     -82.2   187    276 E. c… 126 …
#>  6 Lake T…     118 3F     2023     7     28.1     -82.3     4      7 E. c… < 126
#>  7 Hillsb…     120 3F     2023     7     28.1     -82.4   100    410 E. c… < 126
#>  8 Lake T…     135 3F     2023     7     28.1     -82.3     4      4 E. c… < 126
#>  9 Hillsb…     137 3M     2023     7     28.0     -82.5    NA    680 Ente… 130 …
#> 10 Hillsb…     143 3F     2023     7     28.1     -82.1   800   1333 E. c… 410 …
#> # ℹ 27 more rows
#> # ℹ 1 more variable: col <chr>
```
…
``` r
anlz_fibmatrix(fibdata)
#> # A tibble: 102 × 7
#>       yr grp   class  gmean Latitude Longitude cat  
#>    <dbl> <fct> <chr>  <dbl>    <dbl>     <dbl> <chr>
#>  1  2003 105   Marine  97.1     28.0     -82.4 C    
#>  2  2003 152   Marine 266.      28.0     -82.5 D    
#>  3  2003 137   Marine 342.      28.0     -82.5 D    
#>  4  2004 105   Marine 216.      28.0     -82.4 C    
#>  5  2004 152   Marine 246.      28.0     -82.5 C    
#>  6  2004 137   Marine 302.      28.0     -82.5 D    
#>  7  2005 105   Marine 117.      28.0     -82.4 C    
#>  8  2005 152   Marine  91.7     28.0     -82.5 C    
#>  9  2005 137   Marine  66.6     28.0     -82.5 C    
#> 10  2006 105   Marine  90.7     28.0     -82.4 C    
#> # ℹ 92 more rows
```
…
The
[`anlz_fibwetdry()`](https://tbep-tech.github.io/tbeptools/reference/anlz_fibwetdry.md)
function defines “wet” or “dry” samples as described above and returns
the original input dataset with three additional columns describing the
total rain (inches) on the day of sampling (`rain_sampleDay`), the total
rain in the period defined by the `temporal_window` argument
(`rain_total`), and whether the sample is “wet” or not as a logical
value (`wet_sample`).

``` r
anlz_fibwetdry(enterodata, catchprecip, temporal_window = 2, wet_threshold = 0.5)
#> # A tibble: 6,622 × 19
#>    date          yr    mo time  time_zone long_name   bay_segment station entero
#>    <date>     <dbl> <dbl> <chr> <chr>     <chr>       <chr>       <chr>    <dbl>
#>  1 2001-01-16  2001     1 ""    ""        Old Tampa … OTB         21FLHI…     80
#>  2 2001-02-20  2001     2 ""    ""        Old Tampa … OTB         21FLHI…    360
#>  3 2001-03-20  2001     3 ""    ""        Old Tampa … OTB         21FLHI…   3900
#>  4 2001-04-17  2001     4 ""    ""        Old Tampa … OTB         21FLHI…     20
#>  5 2001-05-15  2001     5 ""    ""        Old Tampa … OTB         21FLHI…     NA
#>  6 2001-06-19  2001     6 ""    ""        Old Tampa … OTB         21FLHI…     NA
#>  7 2001-07-24  2001     7 ""    ""        Old Tampa … OTB         21FLHI…   1300
#>  8 2001-08-21  2001     8 ""    ""        Old Tampa … OTB         21FLHI…    260
#>  9 2001-09-18  2001     9 ""    ""        Old Tampa … OTB         21FLHI…    420
#> 10 2001-10-16  2001    10 ""    ""        Old Tampa … OTB         21FLHI…    520
#> # ℹ 6,612 more rows
#> # ℹ 10 more variables: entero_censored <lgl>, MDL <int>, entero_units <chr>,
#> #   qualifier <lgl>, LabComments <lgl>, Latitude <dbl>, Longitude <dbl>,
#> #   rain_sampleDay <dbl>, rain_total <dbl>, wet_sample <lgl>
```
…
``` r
anlz_enteromap(enterodata)
#> # A tibble: 6,622 × 12
#>    station     long_name    yr    mo Latitude Longitude entero cat   col   ind  
#>    <chr>       <chr>     <dbl> <dbl>    <dbl>     <dbl>  <dbl> <fct> <chr> <chr>
#>  1 21FLHILL_W… Old Tamp…  2001     1     28.0     -82.6     80 35 -… #E9C… Ente…
#>  2 21FLHILL_W… Old Tamp…  2001     2     28.0     -82.6    360 130 … #EE7… Ente…
#>  3 21FLHILL_W… Old Tamp…  2001     3     28.0     -82.6   3900 > 999 #CC3… Ente…
#>  4 21FLHILL_W… Old Tamp…  2001     4     28.0     -82.6     20 < 35  #2DC… Ente…
#>  5 21FLHILL_W… Old Tamp…  2001     5     28.0     -82.6     NA NA    NA    Ente…
#>  6 21FLHILL_W… Old Tamp…  2001     6     28.0     -82.6     NA NA    NA    Ente…
#>  7 21FLHILL_W… Old Tamp…  2001     7     28.0     -82.6   1300 > 999 #CC3… Ente…
#>  8 21FLHILL_W… Old Tamp…  2001     8     28.0     -82.6    260 130 … #EE7… Ente…
#>  9 21FLHILL_W… Old Tamp…  2001     9     28.0     -82.6    420 130 … #EE7… Ente…
#> 10 21FLHILL_W… Old Tamp…  2001    10     28.0     -82.6    520 130 … #EE7… Ente…
#> # ℹ 6,612 more rows
#> # ℹ 2 more variables: indnm <chr>, conc <dbl>
```
…
| Color  | Range     |
|:-------|:----------|
| Green  | \< 35     |
| Yellow | 35 - 129  |
| Orange | 130 - 999 |
| Red    | \> 999    |

The `yrsel` and `mosel` arguments can be used to filter results by year
and month. Not specifying these arguments will return results for the
entire period of record.

``` r
anlz_enteromap(enterodata, yrsel = 2020, mosel = 8)
#> # A tibble: 27 × 12
#>    station     long_name    yr    mo Latitude Longitude entero cat   col   ind  
#>    <chr>       <chr>     <dbl> <dbl>    <dbl>     <dbl>  <dbl> <fct> <chr> <chr>
#>  1 21FLHILL_W… Old Tamp…  2020     8     28.0     -82.6    220 130 … #EE7… Ente…
#>  2 21FLHILL_W… Old Tamp…  2020     8     28.0     -82.6     40 35 -… #E9C… Ente…
#>  3 21FLHILL_W… Old Tamp…  2020     8     28.0     -82.6     70 35 -… #E9C… Ente…
#>  4 21FLHILL_W… Old Tamp…  2020     8     28.0     -82.6     50 35 -… #E9C… Ente…
#>  5 21FLPDEM_W… Old Tamp…  2020     8     27.9     -82.7     20 < 35  #2DC… Ente…
#>  6 21FLHILL_W… Hillsbor…  2020     8     27.9     -82.4      8 < 35  #2DC… Ente…
#>  7 21FLHILL_W… Hillsbor…  2020     8     27.9     -82.4   1200 > 999 #CC3… Ente…
#>  8 21FLHILL_W… Hillsbor…  2020     8     27.8     -82.4    520 130 … #EE7… Ente…
#>  9 21FLHILL_W… Hillsbor…  2020     8     27.9     -82.5    190 130 … #EE7… Ente…
#> 10 21FLHILL_W… Hillsbor…  2020     8     27.9     -82.4     90 35 -… #E9C… Ente…
#> # ℹ 17 more rows
#> # ℹ 2 more variables: indnm <chr>, conc <dbl>
```

The `wetdry` argument can be used to determine whether a sample was
taken after a rain event (logical `wet_sample` column in output), based
on user-specified thresholds and a provided precipitation data object
(`catchprecip`). Below shows how to identify wet samples based on at
least 0.5 inches of rain occurring two days prior to and including the
sample date.

``` r
anlz_enteromap(enterodata, wetdry = TRUE, precipdata = catchprecip,
               temporal_window = 2, wet_threshold = 0.5)
#> # A tibble: 6,622 × 13
#>    station     long_name    yr    mo Latitude Longitude entero cat   col   ind  
#>    <chr>       <chr>     <dbl> <dbl>    <dbl>     <dbl>  <dbl> <fct> <chr> <chr>
#>  1 21FLHILL_W… Old Tamp…  2001     1     28.0     -82.6     80 35 -… #E9C… Ente…
#>  2 21FLHILL_W… Old Tamp…  2001     2     28.0     -82.6    360 130 … #EE7… Ente…
#>  3 21FLHILL_W… Old Tamp…  2001     3     28.0     -82.6   3900 > 999 #CC3… Ente…
#>  4 21FLHILL_W… Old Tamp…  2001     4     28.0     -82.6     20 < 35  #2DC… Ente…
#>  5 21FLHILL_W… Old Tamp…  2001     5     28.0     -82.6     NA NA    NA    Ente…
#>  6 21FLHILL_W… Old Tamp…  2001     6     28.0     -82.6     NA NA    NA    Ente…
#>  7 21FLHILL_W… Old Tamp…  2001     7     28.0     -82.6   1300 > 999 #CC3… Ente…
#>  8 21FLHILL_W… Old Tamp…  2001     8     28.0     -82.6    260 130 … #EE7… Ente…
#>  9 21FLHILL_W… Old Tamp…  2001     9     28.0     -82.6    420 130 … #EE7… Ente…
#> 10 21FLHILL_W… Old Tamp…  2001    10     28.0     -82.6    520 130 … #EE7… Ente…
#> # ℹ 6,612 more rows
#> # ℹ 3 more variables: indnm <chr>, conc <dbl>, wet_sample <lgl>
```
…
``` r
anlz_fibmatrix(enterodata)
#> # A tibble: 571 × 7
#>       yr grp                    class   gmean Latitude Longitude cat  
#>    <dbl> <fct>                  <chr>   <dbl>    <dbl>     <dbl> <chr>
#>  1  2002 21FLDOH_WQX-MANATEE152 Marine   13.6     27.5     -82.7 A    
#>  2  2003 21FLDOH_WQX-MANATEE152 Marine   18.9     27.5     -82.7 A    
#>  3  2003 21FLHILL_WQX-101       Marine  297.      28.0     -82.6 D    
#>  4  2003 21FLHILL_WQX-102       Marine  103.      28.0     -82.6 B    
#>  5  2003 21FLHILL_WQX-103       Marine  359.      28.0     -82.6 D    
#>  6  2003 21FLHILL_WQX-104       Marine 2327.      28.0     -82.6 D    
#>  7  2003 21FLHILL_WQX-109       Marine   36.6     27.9     -82.4 B    
#>  8  2003 21FLHILL_WQX-112       Marine   49.4     27.7     -82.4 B    
#>  9  2003 21FLHILL_WQX-133       Marine  829.      27.9     -82.4 E    
#> 10  2003 21FLHILL_WQX-136       Marine   60.7     27.7     -82.5 A    
#> # ℹ 561 more rows
```
…
