Habitat Master Plan • tbeptools
…
Summary of annual acreage estimates for each major habitat type in intertidal and supratidal strata.
r   acres

Summary of annual acreage estimates for each major habitat type in the subtidal stratam. r   subtacres

A table of targets and goals for each major habitat type, developed in the Habitat Master Plan 2020 update [1] (only select columns shown). r   hmptrgs[, c("Category", "HMPU_TARGETS", "Target2030", "Goal2050")] These datasets are created in the repository https://github.com/tbep-tech/hmpu-workflow and require updates as land use and cover datasets are produced every two to three years by the Southwest Florida Water Management District.

Report Card

An important reporting product for the Habitat Master Plan is a report card that summarizes attainment of targets and goals and evaluates prior trends to identify if coverages are trending above or below the targets or goals. Two functions are provided in tbeptools to create this report card. The anlz_hmpreport() summarizes the above datasets to provide the necessary information for creating the report card. The show_hmpreport() generates the plot for the report card. The latter can be used by itself and the former is only provided if there is a need to view the data behind the report card.

Using the anlz_hmpreport() function summarizes the acreage coverage estimates for each habitat type, compares them to the targets and goals for each year of data, and assesses the coverage trend between year pairs to determine if the changes are trending above or below the targets and goals.

anlz_hmpreport(acres = acres, subtacres = subtacres, hmptrgs = hmptrgs)
#> # A tibble: 146 × 17
#>    year  metric  Acres lacres   lyr categ…¹ Target  Goal acres…² yeard…³ chang…⁴
#>    <chr> <chr>   <dbl>  <dbl> <dbl> <chr>    <dbl> <dbl>   <dbl>   <dbl>   <dbl>
#>  1 1995  Mangr… 14350. 13522.  1990 Inter    15300 15300  828.         5 166.   
#>  2 1995  Salt …   479    468   1990 Inter      546   796   11          5   2.2  
#>  3 1995  Salt …  4436.  4482.  1990 Inter     4807  5457  -45.8        5  -9.17 
#>  4 1995  Total… 19265. 18472.  1990 Inter    21353 23803  793.         5 159.   
#>  5 1999  Mangr… 14314. 14350.  1995 Inter    15300 15300  -36.9        4  -9.22 
#>  6 1999  Salt …   492    479   1995 Inter      546   796   13          4   3.25 
#>  7 1999  Salt …  4442.  4436.  1995 Inter     4807  5457    6.09       4   1.52 
#>  8 1999  Total… 19247. 19265.  1995 Inter    21353 23803  -17.8        4  -4.45 
#>  9 2004  Mangr… 15612. 14314.  1999 Inter    15300 15300 1298.         5 260.   
#> 10 2004  Salt …   488.   492   1999 Inter      546   796   -4.30       5  -0.861
#> # … with 136 more rows, 6 more variables: targetrate <dbl>, goalrate <dbl>,
#> #   targetprop <dbl>, goalprop <dbl>, targeteval <dbl>, goaleval <dbl>, and
#> #   abbreviated variable names ¹​category, ²​acresdiff, ³​yeardiff, ⁴​changerate
…
