…
### Datasets

Three internal datasets in tbeptools provide the necessary information
to create the Habitat Master Plan report card.

1.  Summary of annual acreage estimates for each major habitat type in
    intertidal and supratidal strata.

    ``` r
    acres
    #> # A tibble: 100 × 3
    #> # Groups:   name [10]
    #>    name  HMPU_TARGETS                       Acres
    #>    <chr> <chr>                              <dbl>
    #>  1 1990  Coastal Uplands                    5078.
    #>  2 1990  Developed                        372438.
    #>  3 1990  Forested Freshwater Wetlands     159561.
    #>  4 1990  Mangrove Forests                  13522.
    #>  5 1990  Native Uplands                   229990.
    #>  6 1990  Non-Forested Freshwater Wetlands  54454.
    #>  7 1990  Open Water                        38357.
    #>  8 1990  Restorable                       571513.
    #>  9 1990  Salt Barrens                        468 
    #> 10 1990  Salt Marshes                       4482.
    #> # ℹ 90 more rows
    ```

2.  Summary of annual acreage estimates for each major habitat type in
    the subtidal stratam.

    ``` r
    subtacres
    #> # A tibble: 69 × 3
    #>    name  HMPU_TARGETS    Acres
    #>    <chr> <chr>           <dbl>
    #>  1 1988  Open Water   197802. 
    #>  2 1988  Restorable       72.9
    #>  3 1988  Seagrasses    23279. 
    #>  4 1988  Tidal Flats   21686. 
    #>  5 1990  Open Water   197058. 
    #>  6 1990  Restorable       67.0
    #>  7 1990  Seagrasses    25218. 
    #>  8 1990  Tidal Flats   20433. 
    #>  9 1992  Open Water   195908. 
    #> 10 1992  Restorable       86.0
    #> # ℹ 59 more rows
    ```
…
Using the
[`anlz_hmpreport()`](https://tbep-tech.github.io/tbeptools/reference/anlz_hmpreport.md)
function summarizes the acreage coverage estimates for each habitat
type, compares them to the targets and goals for each year of data, and
assesses the coverage trend between year pairs to determine if the
changes are trending above or below the targets and goals.

``` r
anlz_hmpreport(acres = acres, subtacres = subtacres, hmptrgs = hmptrgs)
#> # A tibble: 165 × 17
#>     year metric      Acres lacres   lyr category Target  Goal acresdiff yeardiff
#>    <dbl> <chr>       <dbl>  <dbl> <dbl> <fct>     <dbl> <dbl>     <dbl>    <dbl>
#>  1  1990 Seagrasses 25218. 23279.  1988 Subtidal  40000 40000     1939.        2
#>  2  1990 Tidal Fla… 20433. 21686.  1988 Subtidal  16220 16220    -1253.        2
#>  3  1992 Seagrasses 25746. 25218.  1990 Subtidal  40000 40000      528.        2
#>  4  1992 Tidal Fla… 20594. 20433.  1990 Subtidal  16220 16220      161.        2
#>  5  1994 Seagrasses 26524. 25746.  1992 Subtidal  40000 40000      778.        2
#>  6  1994 Tidal Fla… 20244. 20594.  1992 Subtidal  16220 16220     -349.        2
#>  7  1996 Seagrasses 26924. 26524.  1994 Subtidal  40000 40000      400.        2
#>  8  1996 Tidal Fla… 20443. 20244.  1994 Subtidal  16220 16220      199.        2
#>  9  1999 Seagrasses 24840. 26924.  1996 Subtidal  40000 40000    -2083.        3
#> 10  1999 Tidal Fla… 27085. 20443.  1996 Subtidal  16220 16220     6642.        3
#> # ℹ 155 more rows
#> # ℹ 7 more variables: changerate <dbl>, targetrate <dbl>, goalrate <dbl>,
#> #   targetprop <dbl>, goalprop <dbl>, targeteval <dbl>, goaleval <dbl>
```
…
