Water Quality Data • tbeptools
…
#> Replacing local file with current...

The argument na indicates which fields in the downloaded
spreadsheet are treated as blank values and assigned to NA.
Any number of strings can be added to this function to replace fields
with NA values.

After the data are successfully imported, you can view them from the
assigned object:

epcdata
#> # A tibble: 27,286 × 26
#>    bay_segment epchc_station SampleTime             yr    mo Latitude Longitude
#>    <chr>               <dbl> <dttm>              <dbl> <dbl>    <dbl>     <dbl>
#>  1 HB                      6 2022-12-13 09:58:00  2022    12     27.9     -82.5
#>  2 HB                      7 2022-12-13 10:15:00  2022    12     27.9     -82.5
#>  3 HB                      8 2022-12-13 12:59:00  2022    12     27.9     -82.4
#>  4 MTB                     9 2022-12-13 12:14:00  2022    12     27.8     -82.4
#>  5 MTB                    11 2022-12-13 10:41:00  2022    12     27.8     -82.5
#>  6 MTB                    13 2022-12-13 10:58:00  2022    12     27.8     -82.5
#>  7 MTB                    14 2022-12-13 11:45:00  2022    12     27.8     -82.5
#>  8 MTB                    16 2022-12-13 09:27:00  2022    12     27.7     -82.5
#>  9 MTB                    19 2022-12-13 09:40:00  2022    12     27.7     -82.6
#> 10 LTB                    23 2022-12-13 12:37:00  2022    12     27.7     -82.6
#> # ℹ 27,276 more rows
#> # ℹ 19 more variables: Total_Depth_m <dbl>, Sample_Depth_m <dbl>, tn <dbl>,
#> #   tn_q <chr>, sd_m <dbl>, sd_raw_m <dbl>, sd_q <chr>, chla <dbl>,
#> #   chla_q <chr>, Sal_Top_ppth <dbl>, Sal_Mid_ppth <dbl>,
#> #   Sal_Bottom_ppth <dbl>, Temp_Water_Top_degC <dbl>,
#> #   Temp_Water_Mid_degC <dbl>, Temp_Water_Bottom_degC <dbl>,
#> #   `Turbidity_JTU-NTU` <chr>, Turbidity_Q <chr>, Color_345_F45_PCU <chr>, …
…
xlsx <- 'phyto_data.xlsx'
phytodata <- read_importphyto(xlsx, download_latest = T)

#> File vignettes/phyto_data.xlsx does not exist, replacing with downloaded file...

#> trying URL 'https://epcbocc.sharepoint.com/:x:/s/Share/ETAfRQ5drmRHntDd1O8s3FQB180Fumed4nQ99w-OIVDxrA?e=eSmtxD&download=1'
 length 12319508 bytes (11.7 MB)

After the phytoplankton data are successfully imported, you can view
them from the assigned object:

phytodata
#> # A tibble: 23,848 × 8
#>    epchc_station Date       name           units  count yrqrt         yr mo   
#>    <chr>         <date>     <chr>          <chr>  <dbl> <date>     <dbl> <ord>
#>  1 11            1975-07-23 Cyanobacteria  /0.1mL     0 1975-07-01  1975 Jul  
#>  2 11            1976-01-07 Cyanobacteria  /0.1mL     1 1976-01-01  1976 Jan  
#>  3 11            1977-01-05 other          /0.1mL     1 1977-01-01  1977 Jan  
#>  4 11            1977-04-20 other          /0.1mL     1 1977-04-01  1977 Apr  
#>  5 11            1977-04-20 Tripos hircus  /0.1mL     1 1977-04-01  1977 Apr  
#>  6 11            1977-07-13 other          /0.1mL    12 1977-07-01  1977 Jul  
#>  7 11            1978-01-11 other          /0.1mL    16 1978-01-01  1978 Jan  
#>  8 11            1979-02-08 other          /0.1mL     1 1979-01-01  1979 Feb  
#>  9 11            1979-05-02 Karenia brevis /0.1mL     1 1979-04-01  1979 May  
#> 10 11            1979-05-30 other          /0.1mL     1 1979-04-01  1979 May  
#> # ℹ 23,838 more rows
…
Here we use anlz_avedat() to summarize the data by bay
segment to estimate annual and monthly means for chlorophyll and light
attenuation. The output is a two-element list for the annual
(ann) and monthly (mos) means by segment.

avedat <- anlz_avedat(epcdata)
avedat
#> $ann
#> # A tibble: 596 × 4
#>       yr bay_segment var         val
#>    <dbl> <chr>       <chr>     <dbl>
#>  1  1974 HB          mean_chla 22.4 
#>  2  1974 LTB         mean_chla  4.24
#>  3  1974 MTB         mean_chla  9.66
#>  4  1974 OTB         mean_chla 10.2 
#>  5  1975 HB          mean_chla 27.9 
#>  6  1975 LTB         mean_chla  4.93
#>  7  1975 MTB         mean_chla 11.4 
#>  8  1975 OTB         mean_chla 13.2 
#>  9  1976 HB          mean_chla 29.5 
#> 10  1976 LTB         mean_chla  5.08
#> # ℹ 586 more rows
#> 
#> $mos
#> # A tibble: 4,604 × 5
#>    bay_segment    yr    mo var         val
#>    <chr>       <dbl> <dbl> <chr>     <dbl>
#>  1 HB           1974     1 mean_chla 36.2 
#>  2 LTB          1974     1 mean_chla  1.75
#>  3 MTB          1974     1 mean_chla 11.5 
#>  4 OTB          1974     1 mean_chla  4.4 
#>  5 HB           1974     2 mean_chla 42.4 
#>  6 LTB          1974     2 mean_chla  5.5 
#>  7 MTB          1974     2 mean_chla  9.35
#>  8 OTB          1974     2 mean_chla  4.07
#>  9 HB           1974     3 mean_chla 14.9 
#> 10 LTB          1974     3 mean_chla  5.88
#> # ℹ 4,594 more rows

This output can then be further analyzed with
anlz_attain() to determine if the bay segment outcomes are
met in each year. The results are used by the plotting functions
described below. In short, the chl_la column indicates the
categorical outcome for chlorophyll and light attenuation for each
segment. The outcomes are integer values from zero to three. The
relative exceedances of water quality thresholds for each segment, both
in duration and magnitude, are indicated by higher integer values.

anlz_attain(avedat)
#> # A tibble: 196 × 4
#>    bay_segment    yr chl_la outcome
#>    <chr>       <dbl> <chr>  <chr>  
#>  1 HB           1974 3_0    yellow 
#>  2 HB           1975 3_2    red    
#>  3 HB           1976 3_2    red    
#>  4 HB           1977 3_2    red    
#>  5 HB           1978 3_3    red    
#>  6 HB           1979 3_3    red    
#>  7 HB           1980 3_3    red    
#>  8 HB           1981 3_3    red    
#>  9 HB           1982 3_3    red    
#> 10 HB           1983 3_0    yellow 
#> # ℹ 186 more rows

Similar information can be obtained for individual sites using
anlz_avedatsite() and anlz_attainsite(). The
main difference is that a yes/no column metis added that
indicates only if the target was above or below the segment threshold
for each site.

anlz_avedatsite(epcdata) %>% anlz_attainsite
#> # A tibble: 2,205 × 9
#>       yr bay_segment epchc_station var     val target smallex thresh met  
#>    <dbl> <chr>               <dbl> <chr> <dbl>  <dbl>   <dbl>  <dbl> <chr>
#>  1  1974 HB                      6 chla   25.6   13.2    14.1     15 no   
#>  2  1974 HB                      7 chla   21.6   13.2    14.1     15 no   
#>  3  1974 HB                      8 chla   22.6   13.2    14.1     15 no   
#>  4  1974 HB                     44 chla   23.4   13.2    14.1     15 no   
#>  5  1974 HB                     52 chla   23.5   13.2    14.1     15 no   
#>  6  1974 HB                     55 chla   20.2   13.2    14.1     15 no   
#>  7  1974 HB                     70 chla   33.1   13.2    14.1     15 no   
#>  8  1974 HB                     71 chla   25.8   13.2    14.1     15 no   
#>  9  1974 HB                     73 chla   17.6   13.2    14.1     15 no   
#> 10  1974 HB                     80 chla   10.5   13.2    14.1     15 yes  
#> # ℹ 2,195 more rows
…
