…
    #> Replacing local file with current...

The argument `na` indicates which fields in the downloaded spreadsheet
are treated as blank values and assigned to `NA`. Any number of strings
can be added to this function to replace fields with `NA` values.

After the data are successfully imported, you can view them from the
assigned object:

``` r
epcdata
#> # A tibble: 29,041 × 26
#>    bay_segment epchc_station SampleTime             yr    mo Latitude Longitude
#>    <chr>               <dbl> <dttm>              <dbl> <dbl>    <dbl>     <dbl>
#>  1 HB                      6 2025-12-10 09:41:00  2025    12     27.9     -82.5
#>  2 HB                      7 2025-12-10 09:49:00  2025    12     27.9     -82.5
#>  3 HB                      8 2025-12-10 11:31:00  2025    12     27.9     -82.4
#>  4 MTB                     9 2025-12-10 11:00:00  2025    12     27.8     -82.4
#>  5 MTB                    11 2025-12-10 10:00:00  2025    12     27.8     -82.5
#>  6 MTB                    13 2025-12-10 10:10:00  2025    12     27.8     -82.5
#>  7 MTB                    14 2025-12-10 10:37:00  2025    12     27.8     -82.5
#>  8 MTB                    16 2025-12-17 09:26:00  2025    12     27.7     -82.5
#>  9 MTB                    19 2025-12-17 09:37:00  2025    12     27.7     -82.6
#> 10 LTB                    23 2025-12-17 12:03:00  2025    12     27.7     -82.6
#> # ℹ 29,031 more rows
#> # ℹ 19 more variables: Total_Depth_m <dbl>, Sample_Depth_m <dbl>, tn <dbl>,
#> #   tn_q <chr>, sd_m <dbl>, sd_raw_m <dbl>, sd_q <chr>, chla <dbl>,
#> #   chla_q <chr>, Sal_Top_ppth <dbl>, Sal_Mid_ppth <dbl>,
#> #   Sal_Bottom_ppth <dbl>, Temp_Water_Top_degC <dbl>,
#> #   Temp_Water_Mid_degC <dbl>, Temp_Water_Bottom_degC <dbl>,
#> #   `Turbidity_JTU-NTU` <chr>, Turbidity_Q <chr>, Color_345_F45_PCU <chr>, …
```
…
``` r
xlsx <- 'phyto_data.xlsx'
phytodata <- read_importphyto(xlsx, download_latest = T)
```

    #> File vignettes/phyto_data.xlsx does not exist, replacing with downloaded file...

After the phytoplankton data are successfully imported, you can view
them from the assigned object:

``` r
phytodata
#> # A tibble: 42,812 × 8
#>    epchc_station Date       name  units  count yrqrt         yr mo   
#>    <chr>         <date>     <chr> <chr>  <dbl> <date>     <dbl> <ord>
#>  1 11            1975-07-23 other /0.1mL     0 1975-07-01  1975 Jul  
#>  2 11            1975-08-21 other /0.1mL     0 1975-07-01  1975 Aug  
#>  3 11            1975-09-17 other /0.1mL     0 1975-07-01  1975 Sep  
#>  4 11            1975-10-15 other /0.1mL     0 1975-10-01  1975 Oct  
#>  5 11            1975-11-12 other /0.1mL     0 1975-10-01  1975 Nov  
#>  6 11            1976-01-07 other /0.1mL     1 1976-01-01  1976 Jan  
#>  7 11            1976-02-03 other /0.1mL     0 1976-01-01  1976 Feb  
#>  8 11            1976-03-02 other /0.1mL     0 1976-01-01  1976 Mar  
#>  9 11            1976-03-31 other /0.1mL     0 1976-01-01  1976 Mar  
#> 10 11            1976-04-28 other /0.1mL     0 1976-04-01  1976 Apr  
#> # ℹ 42,802 more rows
```
…
Additionally, data can be retrieved from the Tampa Bay Water Atlas API
(<https://dev.api.wateratlas.org/redoc/>) using two different functions.
These functions are generally quicker and more flexible than those from
the USEPA Water Quality Portal. The
[`util_importwqwa()`](https://tbep-tech.github.io/tbeptools/reference/util_importwqwa.md)
function retrieves metadata on the available information from the Water
Atlas API. This includes information on available data sources,
parameters, sampling stations, and waterbodies.

``` r
# data sources
util_importwqwa('dataSources')
#> # A tibble: 511 × 4
#>    dataSource              description                     name  fullMetadataUrl
#>    <chr>                   <chr>                           <chr> <chr>          
#>  1 21FLPOLK_WQ             "Polk County Natural Resources… Polk… NA             
#>  2 ACS_POP                 "The American Community Survey… Amer… https://www.ce…
#>  3 Aquaculture_Lease_Areas "CHNEP-generated map of aquacu… Char… https://chnep.…
#>  4 AUDUBON_CBC             "Audubon Christmas Bird Count … Audu… http://netapp.…
#>  5 CANALWATCH_WQ           "Cape Coral Canal Watch volunt… Cape… NA             
#>  6 CASSELBERRY_WQ          "Water quality data collected … Cass… NA             
#>  7 CCHMN                   "This dataset is used for Wate… Coas… NA             
#>  8 CCHMN_CAPECORAL         "This dataset is used for Wate… CCHM… NA             
#>  9 CCHMN_LEE               "This dataset is used for Wate… CCHM… NA             
#> 10 CCHMN_SWFWMD            "This dataset is used for Wate… CCHM… NA             
#> # ℹ 501 more rows

# parameters
util_importwqwa('parameters')
#> # A tibble: 928 × 6
#>    parameterID parameter                  units name  precision graphDisplayName
#>          <int> <chr>                      <chr> <chr>     <int> <chr>           
#>  1         413 1112Tetrachloroethane_dis… ug/l  1,1,…         2 1,1,1,2-Tetrach…
#>  2         412 1112Tetrachloroethane_ugl  ug/l  1,1,…         2 1,1,1,2-Tetrach…
#>  3          59 111Trichloroethane_diss_u… ug/l  1,1,…         2 1,1,1-Trichloro…
#>  4          58 111Trichloroethane_ugl     ug/l  1,1,…         2 1,1,1-Trichloro…
#>  5          63 1122Tetrachloroethane_dis… ug/l  1,1,…         2 1,1,2,2-Tetrach…
#>  6          62 1122Tetrachloroethane_ugl  ug/l  1,1,…         2 1,1,2,2-Tetrach…
#>  7          61 112Trichloroethane_diss_u… ug/l  1,1,…         2 1,1,2-Trichloro…
#>  8          60 112Trichloroethane_ugl     ug/l  1,1,…         2 1,1,2-Trichloro…
#>  9         240 11dichlorethylene_diss_ugl ug/l  1,1-…         2 1,1-Dichloroeth…
#> 10         239 11dichlorethylene_ugl      ug/l  1,1-…         2 1,1-Dichloroeth…
#> # ℹ 918 more rows

# stations, using optional waterbodyId argument for Hillsborough Bay
util_importwqwa('sampling-locations', waterbodyId = 20005)
#> # A tibble: 415 × 8
#>    dataSource       name  stationId latitude longitude waterBodyId waterBodyName
#>    <chr>            <chr> <chr>     <chr>    <chr>           <int> <chr>        
#>  1 USGS_NWIS        MCKA… 02301761  27.9153… -82.4234…       20005 Hillsborough…
#>  2 USGS_NWIS        MCKA… 02301843  27.9330… -82.4303…       20005 Hillsborough…
#>  3 USGS_NWIS        HILL… 02306032  27.8897… -82.4795…       20005 Hillsborough…
#>  4 EPC_ROUTINE_MON… Hill… 1041      27.9220… -82.4241…       20005 Hillsborough…
#>  5 EPC_ROUTINE_MON… Hill… 1150      27.9078… -82.4428…       20005 Hillsborough…
#>  6 EPC_ROUTINE_MON… Hill… 1160      27.9041… -82.4511…       20005 Hillsborough…
#>  7 EPC_ROUTINE_MON… Hill… 1170      27.8904… -82.4628…       20005 Hillsborough…
#>  8 EPC_ROUTINE_MON… Big … 14410     27.7778… -82.4063…       20005 Hillsborough…
#>  9 WIN_21FLHILL     14410 14410     27.7781… -82.4060…       20005 Hillsborough…
#> 10 WIN_21FLHILL     14415 14415     27.7796… -82.4122…       20005 Hillsborough…
#> # ℹ 405 more rows
#> # ℹ 1 more variable: county <chr>

# waterbodies
util_importwqwa('waterbodies')
#> # A tibble: 12,743 × 7
#>         id name              type  surfArea_Acres riverLength_Ft county altNames
#>      <int> <chr>             <chr>          <dbl>          <int> <chr>  <chr>   
#>  1    5963 149th Ave (04-08) Lake            3.09              0 Hills… NA      
#>  2   18802 17th Street Park… Lake            0.26              0 Saras… Pond DP…
#>  3   18801 17th Street Park… Lake            0.24              0 Saras… Pond DP…
#>  4   14870 17th Street Park… Noda…           0.71              0 Saras… Pond DP…
#>  5   18772 17th Street Pond… Lake            0.21              0 Saras… NA      
#>  6   18969 19th Street Pond  Lake            0.28              0 Saras… Pond CD…
#>  7   20200 22nd Street Pond  Lake            4.44              0 Hills… NA      
#>  8   18770 23rd Street Pond  Lake            0.38              0 Saras… NA      
#>  9 2003898 42-Foot Canal     River           0.19          37507 Glades C-4 Can…
#> 10     972 45th Ave NE Canal River          NA              5318 Pinel… NA      
#> # ℹ 12,733 more rows
```
The
[`read_importwqwa()`](https://tbep-tech.github.io/tbeptools/reference/read_importwqwa.md)
function retrieves the actual water quality data based on inputs for the
data source, parameter, and date ranges. The following shows how to
import chlorophyll data (uncorrected) from Pinellas County for January
of 2023. Consult the metadata using
[`util_importwqwa()`](https://tbep-tech.github.io/tbeptools/reference/util_importwqwa.md)
to determine available data sources and parameters.

``` r
read_importwqwa(dataSource = 'WIN_21FLPDEM', parameter = 'Chla_ugl', 
  start_date = '2023-01-01', end_date = '2023-01-31')
#> Requesting: WIN_21FLPDEM, Chla_ugl, 2023-01-01, 2023-01-31
#> Processing NDJSON stream...
#> # A tibble: 28 × 24
#>    dataSource   stationID actualStationID actualLatitude actualLongitude
#>    <chr>        <chr>     <chr>           <chr>          <chr>          
#>  1 WIN_21FLPDEM 08-03     08-03           28.06884265    -82.76802461   
#>  2 WIN_21FLPDEM 09-02     09-02           28.03412170    -82.77984738   
#>  3 WIN_21FLPDEM 18-06     18-06           27.97196562    -82.78145490   
#>  4 WIN_21FLPDEM 10-06     10-06           28.04126253    -82.75304796   
#>  5 WIN_21FLPDEM 10-02     10-02           28.04694745    -82.75892469   
#>  6 WIN_21FLPDEM 15-04     15-04           27.99051106    -82.78377469   
#>  7 WIN_21FLPDEM 53-06     53-06           28.10642699    -82.77355400   
#>  8 WIN_21FLPDEM 27-08     27-08           27.89148857    -82.82486245   
#>  9 WIN_21FLPDEM 17-03     17-03           27.94098330    -82.80113945   
#> 10 WIN_21FLPDEM 27-10     27-10           27.87980000    -82.80951000   
#> # ℹ 18 more rows
#> # ℹ 19 more variables: activityID <chr>, activityStartDate <date>,
#> #   activityStartTime <chr>, activityType <chr>, relativeDepth <chr>,
#> #   activityDepth <dbl>, activityDepthUnit <chr>, characteristic <chr>,
#> #   medium <chr>, sampleFraction <chr>, resultValue <dbl>, resultUnit <chr>,
#> #   mdl <chr>, mdlUnit <chr>, parameter <chr>, wBodyID <int>,
#> #   waterBodyName <chr>, resultComment <chr>, valueQualifier <chr>
```
…
Here we use
[`anlz_avedat()`](https://tbep-tech.github.io/tbeptools/reference/anlz_avedat.md)
to summarize the data by bay segment to estimate annual and monthly
means for chlorophyll and light attenuation. The output is a two-element
list for the annual (`ann`) and monthly (`mos`) means by segment.

``` r
avedat <- anlz_avedat(epcdata)
avedat
#> $ann
#> # A tibble: 632 × 4
#>       yr bay_segment var         val
#>    <dbl> <chr>       <chr>     <dbl>
#>  1  1974 HB          mean_chla 22.4 
#>  2  1974 LTB         mean_chla  4.24
#>  3  1974 MTB         mean_chla  9.66
#>  4  1974 OTB         mean_chla 10.2 
#>  5  1975 HB          mean_chla 27.9 
#>  6  1975 LTB         mean_chla  4.93
#>  7  1975 MTB         mean_chla 11.4 
#>  8  1975 OTB         mean_chla 13.2 
#>  9  1976 HB          mean_chla 29.5 
#> 10  1976 LTB         mean_chla  5.08
#> # ℹ 622 more rows
#> 
#> $mos
#> # A tibble: 4,916 × 5
#>    bay_segment    yr    mo var         val
#>    <chr>       <dbl> <dbl> <chr>     <dbl>
#>  1 HB           1974     1 mean_chla 36.2 
#>  2 LTB          1974     1 mean_chla  1.75
#>  3 MTB          1974     1 mean_chla 11.5 
#>  4 OTB          1974     1 mean_chla  4.4 
#>  5 HB           1974     2 mean_chla 42.4 
#>  6 LTB          1974     2 mean_chla  5.5 
#>  7 MTB          1974     2 mean_chla  9.35
#>  8 OTB          1974     2 mean_chla  4.07
#>  9 HB           1974     3 mean_chla 14.9 
#> 10 LTB          1974     3 mean_chla  5.88
#> # ℹ 4,906 more rows
```

This output can then be further analyzed with
[`anlz_attain()`](https://tbep-tech.github.io/tbeptools/reference/anlz_attain.md)
to determine if the bay segment outcomes are met in each year. The
results are used by the plotting functions described below. In short,
the `chl_la` column indicates the categorical outcome for chlorophyll
and light attenuation for each segment. The outcomes are integer values
from zero to three. The relative exceedances of water quality thresholds
for each segment, both in duration and magnitude, are indicated by
higher integer values.

``` r
anlz_attain(avedat)
#> # A tibble: 208 × 4
#>    bay_segment    yr chl_la outcome
#>    <chr>       <dbl> <chr>  <chr>  
#>  1 HB           1974 3_0    yellow 
#>  2 HB           1975 3_2    red    
#>  3 HB           1976 3_2    red    
#>  4 HB           1977 3_2    red    
#>  5 HB           1978 3_3    red    
#>  6 HB           1979 3_3    red    
#>  7 HB           1980 3_3    red    
#>  8 HB           1981 3_3    red    
#>  9 HB           1982 3_3    red    
#> 10 HB           1983 3_0    yellow 
#> # ℹ 198 more rows
```

Similar information can be obtained for individual sites using
[`anlz_avedatsite()`](https://tbep-tech.github.io/tbeptools/reference/anlz_avedatsite.md)
and
[`anlz_attainsite()`](https://tbep-tech.github.io/tbeptools/reference/anlz_attainsite.md).
The main difference is that a yes/no column `met`is added that indicates
only if the target was above or below the segment threshold for each
site.

``` r
anlz_avedatsite(epcdata) %>% anlz_attainsite
#> # A tibble: 2,340 × 9
#>       yr bay_segment epchc_station var     val target smallex thresh met  
#>    <dbl> <chr>               <dbl> <chr> <dbl>  <dbl>   <dbl>  <dbl> <chr>
#>  1  1974 HB                      6 chla   25.6   13.2    14.1     15 no   
#>  2  1974 HB                      7 chla   21.6   13.2    14.1     15 no   
#>  3  1974 HB                      8 chla   22.6   13.2    14.1     15 no   
#>  4  1974 HB                     44 chla   23.4   13.2    14.1     15 no   
#>  5  1974 HB                     52 chla   23.5   13.2    14.1     15 no   
#>  6  1974 HB                     55 chla   20.2   13.2    14.1     15 no   
#>  7  1974 HB                     70 chla   33.1   13.2    14.1     15 no   
#>  8  1974 HB                     71 chla   25.8   13.2    14.1     15 no   
#>  9  1974 HB                     73 chla   17.6   13.2    14.1     15 no   
#> 10  1974 HB                     80 chla   10.5   13.2    14.1     15 yes  
#> # ℹ 2,330 more rows
```
…
