…
``` r
# import training data
traindat <- read_transect(training = TRUE)

# view the data
traindat
#> # A tibble: 1,857 × 11
#>       yr grp   grpact    Crew  MonitoringAgency Site  Depth Species var   aveval
#>    <int> <chr> <chr>     <chr> <chr>            <chr> <int> <chr>   <chr>  <dbl>
#>  1  2020 A     2020: MC… K. H… MCNRD            1       -50 Halodu… Abun…    3  
#>  2  2020 A     2020: MC… K. H… MCNRD            1       -50 Halodu… Blad…    0  
#>  3  2020 A     2020: MC… K. H… MCNRD            1       -50 Halodu… Shor…    0  
#>  4  2020 A     2020: MC… K. H… MCNRD            2       -40 No Cov… Abun…    0  
#>  5  2020 A     2020: MC… K. H… MCNRD            2       -40 No Cov… Blad…    0  
#>  6  2020 A     2020: MC… K. H… MCNRD            2       -40 No Cov… Shor…    0  
#>  7  2020 A     2020: MC… K. H… MCNRD            3       -60 Halodu… Abun…    5  
#>  8  2020 A     2020: MC… K. H… MCNRD            3       -60 Halodu… Blad…   22  
#>  9  2020 A     2020: MC… K. H… MCNRD            3       -60 Halodu… Shor…   27.3
#> 10  2020 A     2020: MC… K. H… MCNRD            3       -60 Thalas… Abun…    1  
#> # ℹ 1,847 more rows
#> # ℹ 1 more variable: sdval <dbl>
```

Change the `training` argument to `FALSE` to download the entire
transect database. This may take a few seconds.

``` r
# import entire transct dataset as JSON
transect <- read_transect(training = FALSE)

# view the data
transect
#> # A tibble: 164,724 × 11
#>    Crew              MonitoringAgency Date       Transect Site  Depth Savspecies
#>    <chr>             <chr>            <date>     <chr>    <chr> <int> <chr>     
#>  1 A. McClory, A. I… MCNRD            2024-08-13 S4T2     0       -10 No Cover  
#>  2 A. McClory, A. I… MCNRD            2024-08-13 S4T2     0       -10 No Cover  
#>  3 A. McClory, A. I… MCNRD            2024-08-13 S4T2     0       -10 No Cover  
#>  4 A. McClory, A. I… MCNRD            2024-08-13 S4T2     100     -40 Thalassia 
#>  5 A. McClory, A. I… MCNRD            2024-08-13 S4T2     100     -40 Thalassia 
#>  6 A. McClory, A. I… MCNRD            2024-08-13 S4T2     100     -40 Thalassia 
#>  7 A. McClory, A. I… MCNRD            2024-08-13 S4T2     125     -25 Thalassia 
#>  8 A. McClory, A. I… MCNRD            2024-08-13 S4T2     125     -25 Thalassia 
#>  9 A. McClory, A. I… MCNRD            2024-08-13 S4T2     125     -25 Thalassia 
#> 10 A. McClory, A. I… MCNRD            2024-08-13 S4T2     150      -5 Halodule  
#> # ℹ 164,714 more rows
#> # ℹ 4 more variables: SeagrassEdge <dbl>, var <chr>, aveval <dbl>, sdval <dbl>
```
…
If the raw, unformatted transect data are preferred, use the
`raw = TRUE` argument for
[`read_transect()`](https://tbep-tech.github.io/tbeptools/reference/read_transect.md).

``` r
# raw transect data
transectraw <- read_transect(training = FALSE, raw = TRUE)

# view the data
transectraw
#> # A tibble: 55,224 × 46
#>    IDall AssessmentYear CreatedAt   Crew  CountingTech SeagrassEdge Secchi Sonde
#>    <int>          <int> <chr>       <chr> <chr>               <dbl>  <dbl> <lgl>
#>  1     2           1998 1998-10-15… NA    NA                     NA     NA FALSE
#>  2     2           1998 1998-10-15… NA    NA                     NA     NA FALSE
#>  3     2           1998 1998-10-15… NA    NA                     NA     NA FALSE
#>  4     2           1998 1998-10-15… NA    NA                     NA     NA FALSE
#>  5     2           1998 1998-10-15… NA    NA                     NA     NA FALSE
#>  6     2           1998 1998-10-15… NA    NA                     NA     NA FALSE
#>  7     2           1998 1998-10-15… NA    NA                     NA     NA FALSE
#>  8     2           1998 1998-10-15… NA    NA                     NA     NA FALSE
#>  9     2           1998 1998-10-15… NA    NA                     NA     NA FALSE
#> 10     2           1998 1998-10-15… NA    NA                     NA     NA FALSE
#> # ℹ 55,214 more rows
#> # ℹ 38 more variables: Weather <chr>, Hidden <lgl>, HiddenReason <lgl>,
#> #   IsComplete <lgl>, QASubmittedAt <chr>, ReadyForQA <lgl>,
#> #   QACompletedAt <chr>, MonitoringAgency <chr>, Transect <chr>,
#> #   BaySegment <chr>, ID <int>, ObservationDate <chr>, Site <int>,
#> #   Species <chr>, SpeciesAbundance <chr>, Appearance <chr>,
#> #   BladeLength_1 <int>, BladeLength_2 <int>, BladeLength_3 <int>, …
```
…
``` r
transectocc <- anlz_transectocc(transect)
transectocc
#> # A tibble: 41,916 × 6
#> # Groups:   Date, Transect [1,497]
#>    Date       Transect Savspecies                  nsites foest bbest
#>    <date>     <chr>    <chr>                        <int> <dbl> <dbl>
#>  1 1997-10-11 S2T3     "AA"                            41     0     0
#>  2 1997-10-11 S2T3     "Caulerpa"                      41     0     0
#>  3 1997-10-11 S2T3     "Chaetomorpha"                  41     0     0
#>  4 1997-10-11 S2T3     "DA"                            41     0     0
#>  5 1997-10-11 S2T3     "DB: Dictyota\r\n"              41     0     0
#>  6 1997-10-11 S2T3     "DB: Drift Brown\r\n"           41     0     0
#>  7 1997-10-11 S2T3     "DG: Drift Green"               41     0     0
#>  8 1997-10-11 S2T3     "DG: Ulva"                      41     0     0
#>  9 1997-10-11 S2T3     "DG: Ulva fasciata\r\n"         41     0     0
#> 10 1997-10-11 S2T3     "DG: Ulva intestinales\r\n"     41     0     0
#> # ℹ 41,906 more rows
```
…
``` r
transectave <- anlz_transectave(transectocc)
transectave
#> # A tibble: 168 × 4
#> # Groups:   bay_segment [6]
#>    bay_segment    yr foest focat  
#>    <fct>       <dbl> <dbl> <fct>  
#>  1 All          1998  58.0 #E9C318
#>  2 OTB          1998  65.5 #E9C318
#>  3 HB           1998  15.0 #CC3231
#>  4 MTB          1998  53.7 #E9C318
#>  5 LTB          1998  80.8 #2DC938
#>  6 BCB          1998  81.0 #2DC938
#>  7 All          1999  51.4 #E9C318
#>  8 OTB          1999  64.7 #E9C318
#>  9 HB           1999  10.1 #CC3231
#> 10 MTB          1999  51.8 #E9C318
#> # ℹ 158 more rows
```
…
``` r
transectavespp <- anlz_transectavespp(transectocc)
transectavespp
#> # A tibble: 252 × 3
#>       yr Savspecies    foest
#>    <dbl> <fct>         <dbl>
#>  1  1998 Caulerpa     0.0166
#>  2  1998 Chaetomorpha 0     
#>  3  1998 Dapis        0     
#>  4  1998 Halodule     0.361 
#>  5  1998 Halophila    0     
#>  6  1998 Ruppia       0.0112
#>  7  1998 Syringodium  0.0451
#>  8  1998 Thalassia    0.254 
#>  9  1998 total        0.580 
#> 10  1999 Caulerpa     0.0283
#> # ℹ 242 more rows
```

Results for individual bay segments from
[`anlz_transectavespp()`](https://tbep-tech.github.io/tbeptools/reference/anlz_transectavespp.md)
can be retained by setting the `by_seg` argument to `TRUE`. Note that
totals are not returned in this case.

``` r
transectavespp <- anlz_transectavespp(transectocc, by_seg = TRUE)
transectavespp
#> # A tibble: 1,400 × 5
#>       yr bay_segment Savspecies   foest nsites
#>    <dbl> <fct>       <fct>        <dbl>  <int>
#>  1  1998 BCB         Caulerpa     0         96
#>  2  1998 BCB         Chaetomorpha 0         96
#>  3  1998 BCB         Dapis        0         96
#>  4  1998 BCB         Halodule     0.613     96
#>  5  1998 BCB         Halophila    0         96
#>  6  1998 BCB         No Cover     0.190     96
#>  7  1998 BCB         Ruppia       0         96
#>  8  1998 BCB         Syringodium  0         96
#>  9  1998 BCB         Thalassia    0.304     96
#> 10  1998 BCB         total        0.810     96
#> # ℹ 1,390 more rows
```
…
