Seagrass Transect Data • tbeptools
…
Accessing the transect data

The transect data can be downloaded from the Water Atlas using the read_trnjsn() function. The only required argument for this function is training which indicates if you want to download training data or the complete dataset. In the former case, a small dataset is downloaded that includes only data collected during an annual training event. These are used primarily to assess precision among different training crews. The data are downloaded as a JSON object, which can then be passed to the anlz_trnjsn() function for formatting.

# import JSON
trndat <- read_trnjsn(training = TRUE)

# format JSON data for plotting
trndat <- anlz_trnjsn(trndat, training = TRUE)

# view the data
trndat
#> # A tibble: 153 x 8
#>    Crew       MonitoringAgency Site  Depth Savspecies  var          aveval sdval
#>    <chr>      <chr>            <chr> <int> <chr>       <chr>         <dbl> <dbl>
#>  1 CA BH LH … SWFWMD           1       -46 Halodule    Abundance       3   NA   
#>  2 CA BH LH … SWFWMD           1       -46 Halodule    Blade Length    0    0   
#>  3 CA BH LH … SWFWMD           1       -46 Halodule    Short Shoot…    0    0   
#>  4 CA BH LH … SWFWMD           3       -57 Halodule    Abundance       5   NA   
#>  5 CA BH LH … SWFWMD           3       -57 Halodule    Blade Length   22    7.35
#>  6 CA BH LH … SWFWMD           3       -57 Halodule    Short Shoot…   68   20.3 
#>  7 CA BH LH … SWFWMD           3       -54 Thalassia   Abundance       1   NA   
#>  8 CA BH LH … SWFWMD           3       -54 Thalassia   Blade Length   38.8 10.1 
#>  9 CA BH LH … SWFWMD           3       -54 Thalassia   Short Shoot…    2    3.46
#> 10 CA BH LH … SWFWMD           5       -87 Syringodium Abundance       4   NA   
#> # … with 143 more rows
…
Change the training argument to FALSE to download the entire transect database. This may take a few seconds. As before, the anlz_trnjsn() functions formats the JSON object that is returned by read_trnjsn().

# import entire transct dataset as JSON
trndat <- read_trnjsn(training = FALSE)

# format entire transect dataset
trndat <- anlz_trnjsn(trndat, training = FALSE)

# view the data
trndat
#> # A tibble: 128,478 x 11
#>    Crew  MonitoringAgency Date       Transect Site  Depth Savspecies
#>    <chr> <chr>            <date>     <chr>    <chr> <int> <chr>     
#>  1 Bret… EPCHC            2019-09-17 S1T9     0         0 No Cover  
#>  2 Bret… EPCHC            2019-09-17 S1T9     0         0 No Cover  
#>  3 Bret… EPCHC            2019-09-17 S1T9     0         0 No Cover  
#>  4 Bret… EPCHC            2019-09-17 S1T9     100     -85 Syringodi…
#>  5 Bret… EPCHC            2019-09-17 S1T9     100     -85 Syringodi…
#>  6 Bret… EPCHC            2019-09-17 S1T9     100     -85 Syringodi…
#>  7 Bret… EPCHC            2019-09-17 S1T9     100     -85 Thalassia 
#>  8 Bret… EPCHC            2019-09-17 S1T9     100     -85 Thalassia 
#>  9 Bret… EPCHC            2019-09-17 S1T9     100     -85 Thalassia 
#> 10 Bret… EPCHC            2019-09-17 S1T9     125    -155 No Cover  
#> # … with 128,468 more rows, and 4 more variables: SeagrassEdge <dbl>,
#> #   var <chr>, aveval <dbl>, sdval <dbl>
…
