Tampa Bay Benthic Index • tbeptools
…
The individual datasets can be viewed by extracting them from the
parent object using the deframe() function from the tibble
package.

# see all
deframe(benthicdata)
#> $stations
#> # A tibble: 4,915 × 10
#>    StationID StationNumber AreaAbbr FundingProject ProgramID ProgramName       
#>        <int> <chr>         <chr>    <chr>              <int> <chr>             
#>  1       448 02BBs301      MTB      Apollo Beach           4 Benthic Monitoring
#>  2       449 02BBs305      MTB      Apollo Beach           4 Benthic Monitoring
#>  3       450 02BBs307      MTB      Apollo Beach           4 Benthic Monitoring
#>  4       451 02BBs364      MTB      Apollo Beach           4 Benthic Monitoring
#>  5       452 02BBs369      MTB      Apollo Beach           4 Benthic Monitoring
#>  6       453 02BBs395      MTB      Apollo Beach           4 Benthic Monitoring
#>  7       454 02BBs397      MTB      Apollo Beach           4 Benthic Monitoring
#>  8       455 02BBs398      MTB      Apollo Beach           4 Benthic Monitoring
#>  9       456 02BBs401      MTB      Apollo Beach           4 Benthic Monitoring
#> 10       457 02BBs402      MTB      Apollo Beach           4 Benthic Monitoring
#> # ℹ 4,905 more rows
#> # ℹ 4 more variables: Latitude <dbl>, Longitude <dbl>, date <date>, yr <dbl>
#> 
#> $fieldsamples
#> # A tibble: 5,334 × 3
#>    StationID date       Salinity
#>        <int> <date>        <dbl>
#>  1       448 2002-05-21     30.5
#>  2       449 2002-05-20     30.8
#>  3       450 2002-05-21     30.5
#>  4       451 2002-05-21     30.6
#>  5       452 2002-05-20     30  
#>  6       453 2002-05-21     30.6
#>  7       454 2002-05-21     30.5
#>  8       455 2002-05-21     30.3
#>  9       456 2002-05-20     30.0
#> 10       457 2002-05-20     29.9
#> # ℹ 5,324 more rows
#> 
#> $taxacounts
#> # A tibble: 153,895 × 7
#>    StationID TaxaCountID TaxaListID FAMILY           NAME     TaxaCount AdjCount
#>        <int>       <int>      <int> <chr>            <chr>        <dbl>    <dbl>
#>  1     11321      152055       1198 Anomiidae        Anomia …         1       25
#>  2     11321      152056       1224 Carditidae       Cardite…         1       25
#>  3       584      233277        624 Cirratulidae     Chaetoz…         1       25
#>  4     11321      152057       1306 Veneridae        Chione …         3       75
#>  5      3132      239443        352 Pilargidae       Sigambr…        14      350
#>  6     11321      152058       1088 Pyramidellidae   Turboni…         6      150
#>  7      2541      140530        258 NULL             NEMERTEA         8      200
#>  8      2542      140531        258 NULL             NEMERTEA         2       50
#>  9      2992      140631        262 NULL             Palaeon…         4      100
#> 10      3003      140635        285 Tetrastemmatidae Tetrast…         2       50
#> # ℹ 153,885 more rows

# get only station dat
deframe(benthicdata)[['stations']]
#> # A tibble: 4,915 × 10
#>    StationID StationNumber AreaAbbr FundingProject ProgramID ProgramName       
#>        <int> <chr>         <chr>    <chr>              <int> <chr>             
#>  1       448 02BBs301      MTB      Apollo Beach           4 Benthic Monitoring
#>  2       449 02BBs305      MTB      Apollo Beach           4 Benthic Monitoring
#>  3       450 02BBs307      MTB      Apollo Beach           4 Benthic Monitoring
#>  4       451 02BBs364      MTB      Apollo Beach           4 Benthic Monitoring
#>  5       452 02BBs369      MTB      Apollo Beach           4 Benthic Monitoring
#>  6       453 02BBs395      MTB      Apollo Beach           4 Benthic Monitoring
#>  7       454 02BBs397      MTB      Apollo Beach           4 Benthic Monitoring
#>  8       455 02BBs398      MTB      Apollo Beach           4 Benthic Monitoring
#>  9       456 02BBs401      MTB      Apollo Beach           4 Benthic Monitoring
#> 10       457 02BBs402      MTB      Apollo Beach           4 Benthic Monitoring
#> # ℹ 4,905 more rows
#> # ℹ 4 more variables: Latitude <dbl>, Longitude <dbl>, date <date>, yr <dbl>
…
tbbiscr <- anlz_tbbiscr(benthicdata)
tbbiscr
#> # A tibble: 4,915 × 15
#>    StationID StationNumber AreaAbbr FundingProject ProgramID ProgramName       
#>        <int> <chr>         <chr>    <chr>              <int> <chr>             
#>  1       448 02BBs301      MTB      Apollo Beach           4 Benthic Monitoring
#>  2       449 02BBs305      MTB      Apollo Beach           4 Benthic Monitoring
#>  3       450 02BBs307      MTB      Apollo Beach           4 Benthic Monitoring
#>  4       451 02BBs364      MTB      Apollo Beach           4 Benthic Monitoring
#>  5       452 02BBs369      MTB      Apollo Beach           4 Benthic Monitoring
#>  6       453 02BBs395      MTB      Apollo Beach           4 Benthic Monitoring
#>  7       454 02BBs397      MTB      Apollo Beach           4 Benthic Monitoring
#>  8       455 02BBs398      MTB      Apollo Beach           4 Benthic Monitoring
#>  9       456 02BBs401      MTB      Apollo Beach           4 Benthic Monitoring
#> 10       457 02BBs402      MTB      Apollo Beach           4 Benthic Monitoring
#> # ℹ 4,905 more rows
#> # ℹ 9 more variables: Latitude <dbl>, Longitude <dbl>, date <date>, yr <dbl>,
#> #   TotalAbundance <dbl>, SpeciesRichness <dbl>, TBBI <dbl>, TBBICat <chr>,
#> #   Salinity <dbl>
…
The read_importsediment() function will retrieve all
sediment data for Tampa Bay collected annually by the Environmental
Protection Commission of Hillsborough County. The data are retrieved
from the same
location as the biological data used to calculate the TBBI.

path <- '~/Desktop/sediment.zip'
sedimentdata <- read_importsediment(path, download_latest = T)

After the data are imported, you can view them from the assigned
object.

sedimentdata
#> # A tibble: 231,727 × 24
#>    ProgramId ProgramName   FundingProject    yr AreaAbbr StationID StationNumber
#>        <int> <chr>         <chr>          <int> <chr>        <int> <chr>        
#>  1         4 Benthic Moni… TBEP            1993 HB            2463 93HB15       
#>  2         4 Benthic Moni… TBEP            1993 HB            2463 93HB15       
#>  3         4 Benthic Moni… TBEP            1993 HB            2463 93HB15       
#>  4         4 Benthic Moni… TBEP            1993 HB            2463 93HB15       
#>  5         4 Benthic Moni… TBEP            1993 HB            2463 93HB15       
#>  6         4 Benthic Moni… TBEP            1993 HB            2463 93HB15       
#>  7         4 Benthic Moni… TBEP            1993 HB            2463 93HB15       
#>  8         4 Benthic Moni… TBEP            1993 HB            2463 93HB15       
#>  9         4 Benthic Moni… TBEP            1993 HB            2463 93HB15       
#> 10         4 Benthic Moni… TBEP            1993 HB            2463 93HB15       
#> # ℹ 231,717 more rows
#> # ℹ 17 more variables: Latitude <dbl>, Longitude <dbl>, Replicate <chr>,
#> #   SedResultsType <chr>, Parameter <chr>, ValueAdjusted <dbl>, Units <chr>,
#> #   Qualifier <chr>, MDLnum <chr>, PQLnum <chr>, TEL <dbl>, PEL <dbl>,
#> #   BetweenTELPEL <chr>, ExceedsPEL <chr>, PELRatio <dbl>,
#> #   PreparationDate <chr>, AnalysisTimeMerge <chr>
…
show_sedimentpelmap(sedimentdata, yrrng = c(1993, 2024))

The average PEL ratios and grades used to create the map can also be
returned as a data frame using anlz_sedimentpel().

anlz_sedimentpel(sedimentdata, yrrng = c(1993, 2024))
#> # A tibble: 2,321 × 7
#>       yr AreaAbbr StationNumber Latitude Longitude PELRatio Grade
#>    <int> <chr>    <chr>            <dbl>     <dbl>    <dbl> <fct>
#>  1  1993 HB       93HB15            27.8     -82.4  0.0157  B    
#>  2  1993 HB       93HB16            27.8     -82.5  0.0261  C    
#>  3  1993 HB       93HB23            27.9     -82.4  0.0174  B    
#>  4  1993 LTB      93LTB24           27.7     -82.6  0.0124  B    
#>  5  1993 LTB      93LTB25           27.6     -82.6  0.0189  B    
#>  6  1993 LTB      93LTB26           27.6     -82.7  0.00997 B    
#>  7  1993 LTB      93LTB27           27.6     -82.7  0.0125  B    
#>  8  1993 LTB      93LTB28           27.6     -82.7  0.0887  D    
#>  9  1993 LTB      93LTB29           27.6     -82.6  0.0350  C    
#> 10  1993 LTB      93LTB30           27.6     -82.6  0.0496  C    
#> # ℹ 2,311 more rows
…
